EESchema Schematic File Version 4
LIBS:1U_Mag-cache
LIBS:PCB TEMP-cache
EELAYER 30 0
EELAYER END
$Descr A4 11693 8268
encoding utf-8
Sheet 1 1
Title ""
Date ""
Rev ""
Comp ""
Comment1 ""
Comment2 ""
Comment3 ""
Comment4 ""
$EndDescr
$Comp
L MCU_Module:Arduino_Nano_v3.x A?
U 1 1 5F12B623
P 1750 5000
F 0 "A?" H 1750 3911 50  0000 C CNN
F 1 "Arduino_Nano_v3.x" H 1750 3820 50  0000 C CNN
F 2 "Module:Arduino_Nano" H 1900 4050 50  0001 L CNN
F 3 "http://www.mouser.com/pdfdocs/Gravitech_Arduino_Nano3_0.pdf" H 1750 4000 50  0001 C CNN
	1    1750 5000
	1    0    0    -1  
$EndComp
$Comp
L Transistor_FET:IRF4905 PZ_I1
U 1 1 5F1A805E
P 8700 2800
F 0 "PZ_I1" H 8906 2754 50  0000 L CNN
F 1 "IRF4905" H 8906 2845 50  0000 L CNN
F 2 "Package_TO_SOT_THT:TO-220-3_Vertical" H 8900 2725 50  0001 L CIN
F 3 "http://www.infineon.com/dgdl/irf4905.pdf?fileId=5546d462533600a4015355e32165197c" H 8700 2800 50  0001 L CNN
	1    8700 2800
	1    0    0    1   
$EndComp
$Comp
L Transistor_FET:IRF4905 PZ_I2
U 1 1 5F1A8D77
P 9750 2800
F 0 "PZ_I2" H 9955 2754 50  0000 L CNN
F 1 "IRF4905" H 9955 2845 50  0000 L CNN
F 2 "Package_TO_SOT_THT:TO-220-3_Vertical" H 9950 2725 50  0001 L CIN
F 3 "http://www.infineon.com/dgdl/irf4905.pdf?fileId=5546d462533600a4015355e32165197c" H 9750 2800 50  0001 L CNN
	1    9750 2800
	-1   0    0    1   
$EndComp
Wire Wire Line
	9650 2600 9250 2600
Connection ~ 9250 2600
Wire Wire Line
	9250 2600 8800 2600
$Comp
L Transistor_FET:IRF4905 PY_I1
U 1 1 5F1D4AA8
P 6850 2800
F 0 "PY_I1" H 7056 2754 50  0000 L CNN
F 1 "IRF4905" H 7056 2845 50  0000 L CNN
F 2 "Package_TO_SOT_THT:TO-220-3_Vertical" H 7050 2725 50  0001 L CIN
F 3 "http://www.infineon.com/dgdl/irf4905.pdf?fileId=5546d462533600a4015355e32165197c" H 6850 2800 50  0001 L CNN
	1    6850 2800
	1    0    0    1   
$EndComp
$Comp
L Transistor_FET:IRF4905 PY_I2
U 1 1 5F1D4AAE
P 7900 2800
F 0 "PY_I2" H 8105 2754 50  0000 L CNN
F 1 "IRF4905" H 8105 2845 50  0000 L CNN
F 2 "Package_TO_SOT_THT:TO-220-3_Vertical" H 8100 2725 50  0001 L CIN
F 3 "http://www.infineon.com/dgdl/irf4905.pdf?fileId=5546d462533600a4015355e32165197c" H 7900 2800 50  0001 L CNN
	1    7900 2800
	-1   0    0    1   
$EndComp
Wire Wire Line
	7800 2600 7400 2600
Connection ~ 7400 2600
Wire Wire Line
	7400 2600 6950 2600
$Comp
L pspice:INDUCTOR L1
U 1 1 5F1E00AF
P 5500 3450
F 0 "L1" H 5500 3665 50  0000 C CNN
F 1 "INDUCTOR" H 5500 3574 50  0000 C CNN
F 2 "Resistor_THT:R_Axial_DIN0207_L6.3mm_D2.5mm_P7.62mm_Horizontal" H 5500 3450 50  0001 C CNN
F 3 "~" H 5500 3450 50  0001 C CNN
	1    5500 3450
	1    0    0    -1  
$EndComp
$Comp
L Transistor_FET:IRF4905 PX_I1
U 1 1 5F1E00B5
P 4950 2800
F 0 "PX_I1" H 5156 2754 50  0000 L CNN
F 1 "IRF4905" H 5156 2845 50  0000 L CNN
F 2 "Package_TO_SOT_THT:TO-220-3_Vertical" H 5150 2725 50  0001 L CIN
F 3 "http://www.infineon.com/dgdl/irf4905.pdf?fileId=5546d462533600a4015355e32165197c" H 4950 2800 50  0001 L CNN
	1    4950 2800
	1    0    0    1   
$EndComp
$Comp
L Transistor_FET:IRF4905 PX_I2
U 1 1 5F1E00BB
P 6000 2800
F 0 "PX_I2" H 6205 2754 50  0000 L CNN
F 1 "IRF4905" H 6205 2845 50  0000 L CNN
F 2 "Package_TO_SOT_THT:TO-220-3_Vertical" H 6200 2725 50  0001 L CIN
F 3 "http://www.infineon.com/dgdl/irf4905.pdf?fileId=5546d462533600a4015355e32165197c" H 6000 2800 50  0001 L CNN
	1    6000 2800
	-1   0    0    1   
$EndComp
Wire Wire Line
	5900 3300 5900 3450
Wire Wire Line
	5900 3450 5750 3450
Wire Wire Line
	5050 3300 5050 3450
Wire Wire Line
	5250 3450 5050 3450
Wire Wire Line
	5900 2600 5500 2600
Connection ~ 5500 2600
Wire Wire Line
	5500 2600 5050 2600
Wire Wire Line
	5500 2350 5500 2600
Text Label 5500 2350 1    50   ~ 0
VCC
Wire Wire Line
	7400 2350 7400 2600
Text Label 7400 2350 1    50   ~ 0
VCC
Wire Wire Line
	9250 2350 9250 2600
Text Label 9250 2350 1    50   ~ 0
VCC
$Comp
L power:PWR_FLAG #FLG?
U 1 1 5F30BA50
P 8700 5350
F 0 "#FLG?" H 8700 5425 50  0001 C CNN
F 1 "PWR_FLAG" H 8700 5523 50  0000 C CNN
F 2 "" H 8700 5350 50  0001 C CNN
F 3 "~" H 8700 5350 50  0001 C CNN
	1    8700 5350
	1    0    0    -1  
$EndComp
Wire Wire Line
	4750 2800 4750 2500
Wire Wire Line
	6200 2800 6150 2800
Connection ~ 6200 2800
Wire Wire Line
	6200 2500 6200 2800
Wire Wire Line
	6650 2800 6650 2500
Wire Wire Line
	8100 2800 8100 2500
Wire Wire Line
	8500 2800 8500 2500
Wire Wire Line
	9950 2800 9950 2500
Wire Wire Line
	1250 4700 1100 4700
Wire Wire Line
	1250 4900 1100 4900
Text Label 1100 4700 2    50   ~ 0
D_3
Text Label 1100 4900 2    50   ~ 0
D_5
Wire Wire Line
	1250 5000 1100 5000
Text Label 1100 5000 2    50   ~ 0
D_6
Wire Wire Line
	1250 5300 1100 5300
Text Label 1100 5300 2    50   ~ 0
D_9
Wire Wire Line
	1250 5400 1100 5400
Wire Wire Line
	1250 5500 1100 5500
Text Label 1100 5400 2    50   ~ 0
D_10
Text Label 1100 5500 2    50   ~ 0
D_11
Text Label 4750 2500 2    50   ~ 0
D_2
Text Label 6200 2500 2    50   ~ 0
D_4
Text Label 6650 2500 2    50   ~ 0
D_7
Text Label 8100 2500 2    50   ~ 0
D_8
Text Label 8500 2500 2    50   ~ 0
D_12
Text Label 9950 2500 2    50   ~ 0
D_13
Wire Wire Line
	1650 3800 1650 3900
Text Label 1650 3800 2    50   ~ 0
VCC
Wire Wire Line
	5000 6050 5200 6050
Text Label 5200 6050 0    50   ~ 0
VPP
$Comp
L power:GND #PWR?
U 1 1 5F3EE5FA
P 5000 6200
F 0 "#PWR?" H 5000 5950 50  0001 C CNN
F 1 "GND" V 5005 6072 50  0000 R CNN
F 2 "" H 5000 6200 50  0001 C CNN
F 3 "" H 5000 6200 50  0001 C CNN
	1    5000 6200
	0    -1   -1   0   
$EndComp
$Comp
L power:GND #PWR?
U 1 1 5F3EF029
P 1750 6000
F 0 "#PWR?" H 1750 5750 50  0001 C CNN
F 1 "GND" H 1755 5827 50  0000 C CNN
F 2 "" H 1750 6000 50  0001 C CNN
F 3 "" H 1750 6000 50  0001 C CNN
	1    1750 6000
	1    0    0    -1  
$EndComp
$Comp
L power:GND #PWR?
U 1 1 5F3EF9EF
P 1850 6000
F 0 "#PWR?" H 1850 5750 50  0001 C CNN
F 1 "GND" H 1855 5827 50  0000 C CNN
F 2 "" H 1850 6000 50  0001 C CNN
F 3 "" H 1850 6000 50  0001 C CNN
	1    1850 6000
	1    0    0    -1  
$EndComp
Wire Wire Line
	2250 5400 2350 5400
Wire Wire Line
	2250 5500 2400 5500
Text Label 2450 5500 0    50   ~ 0
I2C_SCL
Text Label 2450 5400 0    50   ~ 0
I2C_SDA
Wire Wire Line
	5000 6350 5250 6350
Wire Wire Line
	5000 6500 5250 6500
Text Label 5250 6350 0    50   ~ 0
I2C_SCL
Text Label 5250 6500 0    50   ~ 0
I2C_SDA
$Comp
L Device:R PULLUP_1
U 1 1 5F419EE6
P 2400 4900
F 0 "PULLUP_1" H 2470 4946 50  0000 L CNN
F 1 "10k" H 2470 4855 50  0000 L CNN
F 2 "Resistor_THT:R_Axial_DIN0207_L6.3mm_D2.5mm_P7.62mm_Horizontal" V 2330 4900 50  0001 C CNN
F 3 "~" H 2400 4900 50  0001 C CNN
	1    2400 4900
	1    0    0    -1  
$EndComp
Wire Wire Line
	1650 3900 2400 3900
Wire Wire Line
	2400 3900 2400 4750
Connection ~ 1650 3900
Wire Wire Line
	1650 3900 1650 4000
Wire Wire Line
	2950 3900 2950 4750
Connection ~ 2400 3900
Wire Wire Line
	2400 5500 2400 5300
Wire Wire Line
	2400 5300 2650 5300
Wire Wire Line
	2650 5300 2650 5050
Connection ~ 2400 5500
Wire Wire Line
	2400 5500 2450 5500
Wire Wire Line
	2350 5400 2350 5050
Wire Wire Line
	2350 5050 2400 5050
Connection ~ 2350 5400
Wire Wire Line
	2350 5400 2450 5400
NoConn ~ 1850 4000
NoConn ~ 1950 4000
NoConn ~ 2250 4400
NoConn ~ 2250 4500
NoConn ~ 2250 4800
NoConn ~ 2250 5000
NoConn ~ 2250 5100
NoConn ~ 2250 5200
NoConn ~ 2250 5300
NoConn ~ 2250 5600
NoConn ~ 2250 5700
NoConn ~ 1250 4500
NoConn ~ 5000 6650
NoConn ~ 5000 6800
NoConn ~ 5000 6950
NoConn ~ 5000 7250
NoConn ~ 5000 7400
NoConn ~ 5000 7100
$Comp
L Device:R PULLUP_2
U 1 1 5F419F8B
P 2950 4900
F 0 "PULLUP_2" H 3020 4946 50  0000 L CNN
F 1 "10k" H 3020 4855 50  0000 L CNN
F 2 "Resistor_THT:R_Axial_DIN0207_L6.3mm_D2.5mm_P7.62mm_Horizontal" V 2880 4900 50  0001 C CNN
F 3 "~" H 2950 4900 50  0001 C CNN
	1    2950 4900
	1    0    0    -1  
$EndComp
NoConn ~ 1250 4400
Wire Wire Line
	1250 4600 1100 4600
Wire Wire Line
	1250 4800 1100 4800
Wire Wire Line
	1250 5100 1100 5100
Wire Wire Line
	1250 5200 1100 5200
Wire Wire Line
	1250 5600 1100 5600
Wire Wire Line
	1250 5700 1100 5700
Text Label 1100 4600 2    50   ~ 0
D_2
Text Label 1100 4800 2    50   ~ 0
D_4
Text Label 1100 5100 2    50   ~ 0
D_7
Text Label 1100 5200 2    50   ~ 0
D_8
Text Label 1100 5600 2    50   ~ 0
D_12
Text Label 1100 5700 2    50   ~ 0
D_13
$Comp
L power:GND #PWR?
U 1 1 5F7B8897
P 8700 5350
F 0 "#PWR?" H 8700 5100 50  0001 C CNN
F 1 "GND" H 8705 5177 50  0000 C CNN
F 2 "" H 8700 5350 50  0001 C CNN
F 3 "" H 8700 5350 50  0001 C CNN
	1    8700 5350
	1    0    0    -1  
$EndComp
$Comp
L LED:CQY99 VCC_ON1
U 1 1 5F844FD2
P 6200 5000
F 0 "VCC_ON1" H 6150 5290 50  0000 C CNN
F 1 "CQY99" H 6150 5199 50  0000 C CNN
F 2 "LED_THT:LED_D5.0mm_IRGrey" H 6200 5175 50  0001 C CNN
F 3 "https://www.prtice.info/IMG/pdf/CQY99.pdf" H 6150 5000 50  0001 C CNN
	1    6200 5000
	-1   0    0    1   
$EndComp
Wire Wire Line
	9450 4000 9650 4000
Connection ~ 9450 4000
Wire Wire Line
	9450 4300 9950 4300
Wire Wire Line
	9450 4000 9450 4300
Wire Wire Line
	9050 4000 9250 4000
Connection ~ 9050 4000
Wire Wire Line
	9050 4300 9050 4000
Wire Wire Line
	8500 4300 9050 4300
$Comp
L power:GND #PWR?
U 1 1 5F1BEE9C
P 9250 4100
F 0 "#PWR?" H 9250 3850 50  0001 C CNN
F 1 "GND" H 9255 3927 50  0000 C CNN
F 2 "" H 9250 4100 50  0001 C CNN
F 3 "" H 9250 4100 50  0001 C CNN
	1    9250 4100
	1    0    0    -1  
$EndComp
Wire Wire Line
	9250 4000 9450 4000
Connection ~ 9250 4000
Wire Wire Line
	9250 4000 9250 4100
Wire Wire Line
	8800 4000 9050 4000
Connection ~ 8500 3800
Wire Wire Line
	8500 3800 8500 4000
Connection ~ 9950 3800
Wire Wire Line
	9950 3800 9950 4000
Wire Wire Line
	8800 3450 8800 3600
Connection ~ 8800 3450
Wire Wire Line
	9000 3450 8800 3450
Wire Wire Line
	8800 3300 8800 3450
Wire Wire Line
	9650 3450 9500 3450
Wire Wire Line
	9650 3450 9650 3600
Connection ~ 9650 3450
Wire Wire Line
	9650 3300 9650 3450
$Comp
L Device:R R5
U 1 1 5F1ADF76
P 8500 4150
F 0 "R5" H 8570 4196 50  0000 L CNN
F 1 "1k" H 8570 4105 50  0000 L CNN
F 2 "Resistor_THT:R_Axial_DIN0207_L6.3mm_D2.5mm_P7.62mm_Horizontal" V 8430 4150 50  0001 C CNN
F 3 "~" H 8500 4150 50  0001 C CNN
	1    8500 4150
	1    0    0    -1  
$EndComp
$Comp
L Device:R R6
U 1 1 5F1AD8CB
P 9950 4150
F 0 "R6" H 10020 4196 50  0000 L CNN
F 1 "1k" H 10020 4105 50  0000 L CNN
F 2 "Resistor_THT:R_Axial_DIN0207_L6.3mm_D2.5mm_P7.62mm_Horizontal" V 9880 4150 50  0001 C CNN
F 3 "~" H 9950 4150 50  0001 C CNN
	1    9950 4150
	1    0    0    -1  
$EndComp
$Comp
L Transistor_FET:IRF3205 NZ_I2
U 1 1 5F1AC1DC
P 9750 3800
F 0 "NZ_I2" H 9955 3846 50  0000 L CNN
F 1 "IRF3205" H 9955 3755 50  0000 L CNN
F 2 "Package_TO_SOT_THT:TO-220-3_Vertical" H 10000 3725 50  0001 L CIN
F 3 "http://www.irf.com/product-info/datasheets/data/irf3205.pdf" H 9750 3800 50  0001 L CNN
	1    9750 3800
	-1   0    0    -1  
$EndComp
$Comp
L Transistor_FET:IRF3205 NZ_I1
U 1 1 5F1AAD4C
P 8700 3800
F 0 "NZ_I1" H 8906 3846 50  0000 L CNN
F 1 "IRF3205" H 8906 3755 50  0000 L CNN
F 2 "Package_TO_SOT_THT:TO-220-3_Vertical" H 8950 3725 50  0001 L CIN
F 3 "http://www.irf.com/product-info/datasheets/data/irf3205.pdf" H 8700 3800 50  0001 L CNN
	1    8700 3800
	1    0    0    -1  
$EndComp
$Comp
L pspice:INDUCTOR L3
U 1 1 5F12961C
P 9250 3450
F 0 "L3" H 9250 3665 50  0000 C CNN
F 1 "INDUCTOR" H 9250 3574 50  0000 C CNN
F 2 "Resistor_THT:R_Axial_DIN0207_L6.3mm_D2.5mm_P7.62mm_Horizontal" H 9250 3450 50  0001 C CNN
F 3 "~" H 9250 3450 50  0001 C CNN
	1    9250 3450
	1    0    0    -1  
$EndComp
Wire Wire Line
	7600 4000 7800 4000
Connection ~ 7600 4000
Wire Wire Line
	7600 4300 8100 4300
Wire Wire Line
	7600 4000 7600 4300
Wire Wire Line
	7200 4000 7400 4000
Connection ~ 7200 4000
Wire Wire Line
	7200 4300 7200 4000
Wire Wire Line
	6650 4300 7200 4300
$Comp
L power:GND #PWR?
U 1 1 5F1D4AE8
P 7400 4100
F 0 "#PWR?" H 7400 3850 50  0001 C CNN
F 1 "GND" H 7405 3927 50  0000 C CNN
F 2 "" H 7400 4100 50  0001 C CNN
F 3 "" H 7400 4100 50  0001 C CNN
	1    7400 4100
	1    0    0    -1  
$EndComp
Wire Wire Line
	7400 4000 7600 4000
Connection ~ 7400 4000
Wire Wire Line
	7400 4000 7400 4100
Wire Wire Line
	6950 4000 7200 4000
Connection ~ 6650 3800
Wire Wire Line
	6650 3800 6650 4000
Connection ~ 8100 3800
Wire Wire Line
	8100 3800 8100 4000
Wire Wire Line
	6950 3450 6950 3600
Connection ~ 6950 3450
Wire Wire Line
	7150 3450 6950 3450
Wire Wire Line
	6950 3300 6950 3450
Wire Wire Line
	7800 3450 7650 3450
Wire Wire Line
	7800 3450 7800 3600
Connection ~ 7800 3450
Wire Wire Line
	7800 3300 7800 3450
$Comp
L Device:R R3
U 1 1 5F1D4AC6
P 6650 4150
F 0 "R3" H 6720 4196 50  0000 L CNN
F 1 "1k" H 6720 4105 50  0000 L CNN
F 2 "Resistor_THT:R_Axial_DIN0207_L6.3mm_D2.5mm_P7.62mm_Horizontal" V 6580 4150 50  0001 C CNN
F 3 "~" H 6650 4150 50  0001 C CNN
	1    6650 4150
	1    0    0    -1  
$EndComp
$Comp
L Device:R R4
U 1 1 5F1D4AC0
P 8100 4150
F 0 "R4" H 8170 4196 50  0000 L CNN
F 1 "1k" H 8170 4105 50  0000 L CNN
F 2 "Resistor_THT:R_Axial_DIN0207_L6.3mm_D2.5mm_P7.62mm_Horizontal" V 8030 4150 50  0001 C CNN
F 3 "~" H 8100 4150 50  0001 C CNN
	1    8100 4150
	1    0    0    -1  
$EndComp
$Comp
L Transistor_FET:IRF3205 NY_I2
U 1 1 5F1D4ABA
P 7900 3800
F 0 "NY_I2" H 8105 3846 50  0000 L CNN
F 1 "IRF3205" H 8105 3755 50  0000 L CNN
F 2 "Package_TO_SOT_THT:TO-220-3_Vertical" H 8150 3725 50  0001 L CIN
F 3 "http://www.irf.com/product-info/datasheets/data/irf3205.pdf" H 7900 3800 50  0001 L CNN
	1    7900 3800
	-1   0    0    -1  
$EndComp
$Comp
L Transistor_FET:IRF3205 NY_I1
U 1 1 5F1D4AB4
P 6850 3800
F 0 "NY_I1" H 7056 3846 50  0000 L CNN
F 1 "IRF3205" H 7056 3755 50  0000 L CNN
F 2 "Package_TO_SOT_THT:TO-220-3_Vertical" H 7100 3725 50  0001 L CIN
F 3 "http://www.irf.com/product-info/datasheets/data/irf3205.pdf" H 6850 3800 50  0001 L CNN
	1    6850 3800
	1    0    0    -1  
$EndComp
$Comp
L pspice:INDUCTOR L2
U 1 1 5F1D4AA2
P 7400 3450
F 0 "L2" H 7400 3665 50  0000 C CNN
F 1 "INDUCTOR" H 7400 3574 50  0000 C CNN
F 2 "Resistor_THT:R_Axial_DIN0207_L6.3mm_D2.5mm_P7.62mm_Horizontal" H 7400 3450 50  0001 C CNN
F 3 "~" H 7400 3450 50  0001 C CNN
	1    7400 3450
	1    0    0    -1  
$EndComp
Connection ~ 5050 3450
Connection ~ 5900 3450
Wire Wire Line
	5700 4000 5900 4000
Connection ~ 5700 4000
Wire Wire Line
	5700 4300 6200 4300
Wire Wire Line
	5700 4000 5700 4300
Wire Wire Line
	5300 4000 5500 4000
Connection ~ 5300 4000
Wire Wire Line
	5300 4300 5300 4000
Wire Wire Line
	4750 4300 5300 4300
$Comp
L power:GND #PWR?
U 1 1 5F1E00F5
P 5500 4100
F 0 "#PWR?" H 5500 3850 50  0001 C CNN
F 1 "GND" H 5505 3927 50  0000 C CNN
F 2 "" H 5500 4100 50  0001 C CNN
F 3 "" H 5500 4100 50  0001 C CNN
	1    5500 4100
	1    0    0    -1  
$EndComp
Wire Wire Line
	5500 4000 5700 4000
Connection ~ 5500 4000
Wire Wire Line
	5500 4000 5500 4100
Wire Wire Line
	5050 4000 5300 4000
Connection ~ 4750 3800
Wire Wire Line
	4750 3800 4750 4000
Connection ~ 6200 3800
Wire Wire Line
	6200 3800 6200 4000
Wire Wire Line
	5050 3450 5050 3600
Wire Wire Line
	5900 3450 5900 3600
$Comp
L Device:R R1
U 1 1 5F1E00D3
P 4750 4150
F 0 "R1" H 4820 4196 50  0000 L CNN
F 1 "1k" H 4820 4105 50  0000 L CNN
F 2 "Resistor_THT:R_Axial_DIN0207_L6.3mm_D2.5mm_P7.62mm_Horizontal" V 4680 4150 50  0001 C CNN
F 3 "~" H 4750 4150 50  0001 C CNN
	1    4750 4150
	1    0    0    -1  
$EndComp
$Comp
L Device:R R2
U 1 1 5F1E00CD
P 6200 4150
F 0 "R2" H 6270 4196 50  0000 L CNN
F 1 "1k" H 6270 4105 50  0000 L CNN
F 2 "Resistor_THT:R_Axial_DIN0207_L6.3mm_D2.5mm_P7.62mm_Horizontal" V 6130 4150 50  0001 C CNN
F 3 "~" H 6200 4150 50  0001 C CNN
	1    6200 4150
	1    0    0    -1  
$EndComp
$Comp
L Transistor_FET:IRF3205 NX_I2
U 1 1 5F1E00C7
P 6000 3800
F 0 "NX_I2" H 6205 3846 50  0000 L CNN
F 1 "IRF3205" H 6205 3755 50  0000 L CNN
F 2 "Package_TO_SOT_THT:TO-220-3_Vertical" H 6250 3725 50  0001 L CIN
F 3 "http://www.irf.com/product-info/datasheets/data/irf3205.pdf" H 6000 3800 50  0001 L CNN
	1    6000 3800
	-1   0    0    -1  
$EndComp
$Comp
L Transistor_FET:IRF3205 NX_I1
U 1 1 5F1E00C1
P 4950 3800
F 0 "NX_I1" H 5156 3846 50  0000 L CNN
F 1 "IRF3205" H 5156 3755 50  0000 L CNN
F 2 "Package_TO_SOT_THT:TO-220-3_Vertical" H 5200 3725 50  0001 L CIN
F 3 "http://www.irf.com/product-info/datasheets/data/irf3205.pdf" H 4950 3800 50  0001 L CNN
	1    4950 3800
	1    0    0    -1  
$EndComp
$Comp
L LED:CQY99 IX1_ON1
U 1 1 5F845F38
P 5050 3100
F 0 "IX1_ON1" V 5046 3023 50  0000 R CNN
F 1 "CQY99" V 4955 3023 50  0000 R CNN
F 2 "LED_THT:LED_D5.0mm_IRGrey" H 5050 3275 50  0001 C CNN
F 3 "https://www.prtice.info/IMG/pdf/CQY99.pdf" H 5000 3100 50  0001 C CNN
	1    5050 3100
	0    -1   -1   0   
$EndComp
$Comp
L LED:CQY99 IX2_ON2
U 1 1 5F92E5D6
P 5900 3100
F 0 "IX2_ON2" V 5896 3023 50  0000 R CNN
F 1 "CQY99" V 5805 3023 50  0000 R CNN
F 2 "LED_THT:LED_D5.0mm_IRGrey" H 5900 3275 50  0001 C CNN
F 3 "https://www.prtice.info/IMG/pdf/CQY99.pdf" H 5850 3100 50  0001 C CNN
	1    5900 3100
	0    -1   -1   0   
$EndComp
$Comp
L LED:CQY99 IY1_ON1
U 1 1 5F94372C
P 6950 3100
F 0 "IY1_ON1" V 6946 3022 50  0000 R CNN
F 1 "CQY99" V 6855 3022 50  0000 R CNN
F 2 "LED_THT:LED_D5.0mm_IRGrey" H 6950 3275 50  0001 C CNN
F 3 "https://www.prtice.info/IMG/pdf/CQY99.pdf" H 6900 3100 50  0001 C CNN
	1    6950 3100
	0    -1   -1   0   
$EndComp
$Comp
L LED:CQY99 IY2_ON2
U 1 1 5F94CB51
P 7800 3100
F 0 "IY2_ON2" V 7796 3022 50  0000 R CNN
F 1 "CQY99" V 7705 3022 50  0000 R CNN
F 2 "LED_THT:LED_D5.0mm_IRGrey" H 7800 3275 50  0001 C CNN
F 3 "https://www.prtice.info/IMG/pdf/CQY99.pdf" H 7750 3100 50  0001 C CNN
	1    7800 3100
	0    -1   -1   0   
$EndComp
$Comp
L LED:CQY99 IZ1_ON1
U 1 1 5F960FDD
P 8800 3100
F 0 "IZ1_ON1" V 8796 3023 50  0000 R CNN
F 1 "CQY99" V 8705 3023 50  0000 R CNN
F 2 "LED_THT:LED_D5.0mm_IRGrey" H 8800 3275 50  0001 C CNN
F 3 "https://www.prtice.info/IMG/pdf/CQY99.pdf" H 8750 3100 50  0001 C CNN
	1    8800 3100
	0    -1   -1   0   
$EndComp
$Comp
L LED:CQY99 IZ2_ON2
U 1 1 5F96A253
P 9650 3100
F 0 "IZ2_ON2" V 9646 3023 50  0000 R CNN
F 1 "CQY99" V 9555 3023 50  0000 R CNN
F 2 "LED_THT:LED_D5.0mm_IRGrey" H 9650 3275 50  0001 C CNN
F 3 "https://www.prtice.info/IMG/pdf/CQY99.pdf" H 9600 3100 50  0001 C CNN
	1    9650 3100
	0    -1   -1   0   
$EndComp
Wire Wire Line
	4750 2800 4750 3800
Connection ~ 4750 2800
Wire Wire Line
	6200 2800 6200 3800
Wire Wire Line
	6650 2800 6650 3800
Connection ~ 6650 2800
Wire Wire Line
	8100 2800 8100 3800
Connection ~ 8100 2800
Wire Wire Line
	8500 2800 8500 3800
Connection ~ 8500 2800
Wire Wire Line
	9950 2800 9950 3800
Connection ~ 9950 2800
Wire Wire Line
	6100 5000 6000 5000
Text Label 6000 5000 0    50   ~ 0
VCC
$Comp
L power:GND #PWR?
U 1 1 5F9C45D8
P 6400 5000
F 0 "#PWR?" H 6400 4750 50  0001 C CNN
F 1 "GND" V 6405 4872 50  0000 R CNN
F 2 "" H 6400 5000 50  0001 C CNN
F 3 "" H 6400 5000 50  0001 C CNN
	1    6400 5000
	0    -1   -1   0   
$EndComp
$Comp
L power:+5V #PWR?
U 1 1 5F6F4772
P 4350 5100
F 0 "#PWR?" H 4350 4950 50  0001 C CNN
F 1 "+5V" H 4365 5273 50  0000 C CNN
F 2 "" H 4350 5100 50  0001 C CNN
F 3 "" H 4350 5100 50  0001 C CNN
	1    4350 5100
	1    0    0    -1  
$EndComp
$Comp
L power:+3.3V #PWR?
U 1 1 5F6F4F60
P 4850 5100
F 0 "#PWR?" H 4850 4950 50  0001 C CNN
F 1 "+3.3V" H 4865 5273 50  0000 C CNN
F 2 "" H 4850 5100 50  0001 C CNN
F 3 "" H 4850 5100 50  0001 C CNN
	1    4850 5100
	1    0    0    -1  
$EndComp
Wire Wire Line
	4350 5100 4350 5200
Wire Wire Line
	4850 5100 4850 5200
$Comp
L power:PWR_FLAG #FLG?
U 1 1 5F6FBE5F
P 4350 5200
F 0 "#FLG?" H 4350 5275 50  0001 C CNN
F 1 "PWR_FLAG" H 4350 5373 50  0000 C CNN
F 2 "" H 4350 5200 50  0001 C CNN
F 3 "~" H 4350 5200 50  0001 C CNN
	1    4350 5200
	-1   0    0    1   
$EndComp
$Comp
L power:PWR_FLAG #FLG?
U 1 1 5F6FC6BD
P 4850 5200
F 0 "#FLG?" H 4850 5275 50  0001 C CNN
F 1 "PWR_FLAG" H 4850 5373 50  0000 C CNN
F 2 "" H 4850 5200 50  0001 C CNN
F 3 "~" H 4850 5200 50  0001 C CNN
	1    4850 5200
	-1   0    0    1   
$EndComp
Text Label 4850 5150 0    50   ~ 0
VPP
Text Label 4350 5150 0    50   ~ 0
VCC
$Comp
L LED:CQY99 VPP_ON1
U 1 1 5F708551
P 6200 5500
F 0 "VPP_ON1" H 6150 5790 50  0000 C CNN
F 1 "CQY99" H 6150 5699 50  0000 C CNN
F 2 "LED_THT:LED_D5.0mm_IRGrey" H 6200 5675 50  0001 C CNN
F 3 "https://www.prtice.info/IMG/pdf/CQY99.pdf" H 6150 5500 50  0001 C CNN
	1    6200 5500
	-1   0    0    1   
$EndComp
Wire Wire Line
	6100 5500 6000 5500
Text Label 6000 5500 0    50   ~ 0
VPP
$Comp
L power:GND #PWR?
U 1 1 5F708559
P 6400 5500
F 0 "#PWR?" H 6400 5250 50  0001 C CNN
F 1 "GND" V 6405 5372 50  0000 R CNN
F 2 "" H 6400 5500 50  0001 C CNN
F 3 "" H 6400 5500 50  0001 C CNN
	1    6400 5500
	0    -1   -1   0   
$EndComp
Wire Wire Line
	2650 5050 2950 5050
Wire Wire Line
	2400 3900 2950 3900
$Comp
L MPU-92_65:MPU-92_65 U?
U 1 1 5F9FDD57
P 4500 6950
F 0 "U?" H 4492 5835 50  0000 C CNN
F 1 "MPU-92_65" H 4492 5926 50  0000 C CNN
F 2 "" H 6400 6600 50  0001 C CNN
F 3 "" H 6400 6600 50  0001 C CNN
	1    4500 6950
	-1   0    0    1   
$EndComp
$EndSCHEMATC
