(export (version D)
  (design
    (source "C:\\Users\\epica\\Documents\\gitTest\\1cu-earth-analogue\\PCB TEMP2.sch")
    (date "7/11/2020 1:09:03 PM")
    (tool "Eeschema (5.1.6)-1")
    (sheet (number 1) (name /) (tstamps /)
      (title_block
        (title)
        (company)
        (rev)
        (date)
        (source "PCB TEMP2.sch")
        (comment (number 1) (value ""))
        (comment (number 2) (value ""))
        (comment (number 3) (value ""))
        (comment (number 4) (value "")))))
  (components
    (comp (ref MH1)
      (value MountingHole)
      (footprint MountingHole:MountingHole_3mm)
      (datasheet ~)
      (libsource (lib PCB-TEMP2-rescue) (part Mechanical_MountingHole-PCB-TEMP-rescue) (description ""))
      (sheetpath (names /) (tstamps /))
      (tstamp 5C70847C))
    (comp (ref MH3)
      (value MountingHole)
      (footprint MountingHole:MountingHole_3mm)
      (datasheet ~)
      (libsource (lib PCB-TEMP2-rescue) (part Mechanical_MountingHole-PCB-TEMP-rescue) (description ""))
      (sheetpath (names /) (tstamps /))
      (tstamp 5C70850E))
    (comp (ref MH4)
      (value MountingHole)
      (footprint MountingHole:MountingHole_3mm)
      (datasheet ~)
      (libsource (lib PCB-TEMP2-rescue) (part Mechanical_MountingHole-PCB-TEMP-rescue) (description ""))
      (sheetpath (names /) (tstamps /))
      (tstamp 5C70857C))
    (comp (ref MH2)
      (value MountingHole)
      (footprint MountingHole:MountingHole_3mm)
      (datasheet ~)
      (libsource (lib PCB-TEMP2-rescue) (part Mechanical_MountingHole-PCB-TEMP-rescue) (description ""))
      (sheetpath (names /) (tstamps /))
      (tstamp 5C7085DC))
    (comp (ref U1)
      (value PCbus)
      (footprint "PC_BUS:BUS PC104")
      (libsource (lib PCB-TEMP2-rescue) (part SOLAR_PCbus-PCB-TEMP-rescue) (description ""))
      (sheetpath (names /) (tstamps /))
      (tstamp 5C713480))
    (comp (ref PULLUP_1)
      (value 10k)
      (footprint Resistor_THT:R_Axial_DIN0207_L6.3mm_D2.5mm_P7.62mm_Horizontal)
      (datasheet ~)
      (libsource (lib Device) (part R) (description Resistor))
      (sheetpath (names /) (tstamps /))
      (tstamp 5F419EE6))
    (comp (ref PULLUP_2)
      (value 10k)
      (footprint Resistor_THT:R_Axial_DIN0207_L6.3mm_D2.5mm_P7.62mm_Horizontal)
      (datasheet ~)
      (libsource (lib Device) (part R) (description Resistor))
      (sheetpath (names /) (tstamps /))
      (tstamp 5F419F8B))
    (comp (ref VCC_ON1)
      (value CQY99)
      (footprint LED_THT:LED_D5.0mm_IRGrey)
      (datasheet https://www.prtice.info/IMG/pdf/CQY99.pdf)
      (libsource (lib LED) (part CQY99) (description "950nm IR-LED, 5mm"))
      (sheetpath (names /) (tstamps /))
      (tstamp 5F844FD2))
    (comp (ref VPP_ON1)
      (value CQY99)
      (footprint LED_THT:LED_D5.0mm_IRGrey)
      (datasheet https://www.prtice.info/IMG/pdf/CQY99.pdf)
      (libsource (lib LED) (part CQY99) (description "950nm IR-LED, 5mm"))
      (sheetpath (names /) (tstamps /))
      (tstamp 5F708551))
    (comp (ref U2)
      (value MPU-92_65)
      (footprint MPU-92:MPU-92.65)
      (libsource (lib PCB-TEMP2-rescue) (part MPU-92_65-MPU-92_65) (description ""))
      (sheetpath (names /) (tstamps /))
      (tstamp 5F9FDD57))
    (comp (ref A1)
      (value Arduino_Nano_v3.x)
      (footprint Module:Arduino_Nano)
      (datasheet http://www.mouser.com/pdfdocs/Gravitech_Arduino_Nano3_0.pdf)
      (libsource (lib PCB-TEMP2-rescue) (part Arduino_Nano_v3.x-MCU_Module) (description ""))
      (sheetpath (names /) (tstamps /))
      (tstamp 5F12B623))
    (comp (ref U3)
      (value 2N7002-7-F)
      (footprint 2n:2N7002-7-F)
      (libsource (lib 2N7002-7-F) (part 2N7002-7-F) (description ""))
      (sheetpath (names /) (tstamps /))
      (tstamp 5FC167C1))
    (comp (ref U9)
      (value BSS84-7-F)
      (footprint bss:BSS84-7-F)
      (libsource (lib BSS84-7) (part BSS84-7-F) (description ""))
      (sheetpath (names /) (tstamps /))
      (tstamp 5FAC92F3))
    (comp (ref U10)
      (value 2N7002-7-F)
      (footprint 2n:2N7002-7-F)
      (libsource (lib 2N7002-7-F) (part 2N7002-7-F) (description ""))
      (sheetpath (names /) (tstamps /))
      (tstamp 5FAF91F8))
    (comp (ref U4)
      (value BSS84-7-F)
      (footprint bss:BSS84-7-F)
      (libsource (lib BSS84-7) (part BSS84-7-F) (description ""))
      (sheetpath (names /) (tstamps /))
      (tstamp 5FABFC70))
    (comp (ref IX2_ON1)
      (value CQY99)
      (footprint LED_THT:LED_D5.0mm_IRGrey)
      (datasheet https://www.prtice.info/IMG/pdf/CQY99.pdf)
      (libsource (lib LED) (part CQY99) (description "950nm IR-LED, 5mm"))
      (sheetpath (names /) (tstamps /))
      (tstamp 5F92E5D6))
    (comp (ref IX1_ON1)
      (value CQY99)
      (footprint LED_THT:LED_D5.0mm_IRGrey)
      (datasheet https://www.prtice.info/IMG/pdf/CQY99.pdf)
      (libsource (lib LED) (part CQY99) (description "950nm IR-LED, 5mm"))
      (sheetpath (names /) (tstamps /))
      (tstamp 5F845F38))
    (comp (ref R2)
      (value 1k)
      (footprint Resistor_THT:R_Axial_DIN0207_L6.3mm_D2.5mm_P7.62mm_Horizontal)
      (datasheet ~)
      (libsource (lib Device) (part R) (description Resistor))
      (sheetpath (names /) (tstamps /))
      (tstamp 5F1E00CD))
    (comp (ref R1)
      (value 1k)
      (footprint Resistor_THT:R_Axial_DIN0207_L6.3mm_D2.5mm_P7.62mm_Horizontal)
      (datasheet ~)
      (libsource (lib Device) (part R) (description Resistor))
      (sheetpath (names /) (tstamps /))
      (tstamp 5F1E00D3))
    (comp (ref L1)
      (value INDUCTOR)
      (footprint Resistor_THT:R_Axial_DIN0207_L6.3mm_D2.5mm_P7.62mm_Horizontal)
      (datasheet ~)
      (libsource (lib pspice) (part INDUCTOR) (description "Inductor symbol for simulation only"))
      (sheetpath (names /) (tstamps /))
      (tstamp 5F1E00AF))
    (comp (ref U5)
      (value 2N7002-7-F)
      (footprint 2n:2N7002-7-F)
      (libsource (lib 2N7002-7-F) (part 2N7002-7-F) (description ""))
      (sheetpath (names /) (tstamps /))
      (tstamp 5FE9310F))
    (comp (ref U11)
      (value BSS84-7-F)
      (footprint bss:BSS84-7-F)
      (libsource (lib BSS84-7) (part BSS84-7-F) (description ""))
      (sheetpath (names /) (tstamps /))
      (tstamp 5FE9311A))
    (comp (ref U13)
      (value 2N7002-7-F)
      (footprint 2n:2N7002-7-F)
      (libsource (lib 2N7002-7-F) (part 2N7002-7-F) (description ""))
      (sheetpath (names /) (tstamps /))
      (tstamp 5FE93129))
    (comp (ref IX2_ON2)
      (value CQY99)
      (footprint LED_THT:LED_D5.0mm_IRGrey)
      (datasheet https://www.prtice.info/IMG/pdf/CQY99.pdf)
      (libsource (lib LED) (part CQY99) (description "950nm IR-LED, 5mm"))
      (sheetpath (names /) (tstamps /))
      (tstamp 5FE93136))
    (comp (ref R5)
      (value 1k)
      (footprint Resistor_THT:R_Axial_DIN0207_L6.3mm_D2.5mm_P7.62mm_Horizontal)
      (datasheet ~)
      (libsource (lib Device) (part R) (description Resistor))
      (sheetpath (names /) (tstamps /))
      (tstamp 5FE93142))
    (comp (ref R3)
      (value 1k)
      (footprint Resistor_THT:R_Axial_DIN0207_L6.3mm_D2.5mm_P7.62mm_Horizontal)
      (datasheet ~)
      (libsource (lib Device) (part R) (description Resistor))
      (sheetpath (names /) (tstamps /))
      (tstamp 5FE93148))
    (comp (ref L2)
      (value INDUCTOR)
      (footprint Resistor_THT:R_Axial_DIN0207_L6.3mm_D2.5mm_P7.62mm_Horizontal)
      (datasheet ~)
      (libsource (lib pspice) (part INDUCTOR) (description "Inductor symbol for simulation only"))
      (sheetpath (names /) (tstamps /))
      (tstamp 5FE93165))
    (comp (ref U6)
      (value 2N7002-7-F)
      (footprint 2n:2N7002-7-F)
      (libsource (lib 2N7002-7-F) (part 2N7002-7-F) (description ""))
      (sheetpath (names /) (tstamps /))
      (tstamp 5FF0A197))
    (comp (ref U12)
      (value BSS84-7-F)
      (footprint bss:BSS84-7-F)
      (libsource (lib BSS84-7) (part BSS84-7-F) (description ""))
      (sheetpath (names /) (tstamps /))
      (tstamp 5FF0A1A2))
    (comp (ref U14)
      (value 2N7002-7-F)
      (footprint 2n:2N7002-7-F)
      (libsource (lib 2N7002-7-F) (part 2N7002-7-F) (description ""))
      (sheetpath (names /) (tstamps /))
      (tstamp 5FF0A1B1))
    (comp (ref U8)
      (value BSS84-7-F)
      (footprint bss:BSS84-7-F)
      (libsource (lib BSS84-7) (part BSS84-7-F) (description ""))
      (sheetpath (names /) (tstamps /))
      (tstamp 5FF0A1B7))
    (comp (ref IX2_ON3)
      (value CQY99)
      (footprint LED_THT:LED_D5.0mm_IRGrey)
      (datasheet https://www.prtice.info/IMG/pdf/CQY99.pdf)
      (libsource (lib LED) (part CQY99) (description "950nm IR-LED, 5mm"))
      (sheetpath (names /) (tstamps /))
      (tstamp 5FF0A1BE))
    (comp (ref IX1_ON3)
      (value CQY99)
      (footprint LED_THT:LED_D5.0mm_IRGrey)
      (datasheet https://www.prtice.info/IMG/pdf/CQY99.pdf)
      (libsource (lib LED) (part CQY99) (description "950nm IR-LED, 5mm"))
      (sheetpath (names /) (tstamps /))
      (tstamp 5FF0A1C4))
    (comp (ref R6)
      (value 1k)
      (footprint Resistor_THT:R_Axial_DIN0207_L6.3mm_D2.5mm_P7.62mm_Horizontal)
      (datasheet ~)
      (libsource (lib Device) (part R) (description Resistor))
      (sheetpath (names /) (tstamps /))
      (tstamp 5FF0A1CA))
    (comp (ref R4)
      (value 1k)
      (footprint Resistor_THT:R_Axial_DIN0207_L6.3mm_D2.5mm_P7.62mm_Horizontal)
      (datasheet ~)
      (libsource (lib Device) (part R) (description Resistor))
      (sheetpath (names /) (tstamps /))
      (tstamp 5FF0A1D0))
    (comp (ref L3)
      (value INDUCTOR)
      (footprint Resistor_THT:R_Axial_DIN0207_L6.3mm_D2.5mm_P7.62mm_Horizontal)
      (datasheet ~)
      (libsource (lib pspice) (part INDUCTOR) (description "Inductor symbol for simulation only"))
      (sheetpath (names /) (tstamps /))
      (tstamp 5FF0A1ED))
    (comp (ref IX1_ON2)
      (value CQY99)
      (footprint LED_THT:LED_D5.0mm_IRGrey)
      (datasheet https://www.prtice.info/IMG/pdf/CQY99.pdf)
      (libsource (lib LED) (part CQY99) (description "950nm IR-LED, 5mm"))
      (sheetpath (names /) (tstamps /))
      (tstamp 5FE9313C))
    (comp (ref U7)
      (value BSS84-7-F)
      (footprint bss:BSS84-7-F)
      (libsource (lib BSS84-7) (part BSS84-7-F) (description ""))
      (sheetpath (names /) (tstamps /))
      (tstamp 5FE9312F)))
  (libparts
    (libpart (lib 2N7002-7-F) (part 2N7002-7-F)
      (footprints
        (fp SOT-23_DIO)
        (fp SOT-23_DIO-M)
        (fp SOT-23_DIO-L))
      (fields
        (field (name Reference) U)
        (field (name Value) 2N7002-7-F)
        (field (name Footprint) SOT-23_DIO))
      (pins
        (pin (num 1) (name G) (type unspc))
        (pin (num 2) (name D) (type unspc))
        (pin (num 3) (name S) (type unspc))))
    (libpart (lib BSS84-7) (part BSS84-7-F)
      (footprints
        (fp SOT-23_DIO)
        (fp SOT-23_DIO-M)
        (fp SOT-23_DIO-L))
      (fields
        (field (name Reference) U)
        (field (name Value) BSS84-7-F)
        (field (name Footprint) SOT-23_DIO))
      (pins
        (pin (num 1) (name G) (type unspc))
        (pin (num 2) (name D) (type unspc))
        (pin (num 3) (name S) (type unspc))))
    (libpart (lib Device) (part R)
      (description Resistor)
      (docs ~)
      (footprints
        (fp R_*))
      (fields
        (field (name Reference) R)
        (field (name Value) R))
      (pins
        (pin (num 1) (name ~) (type passive))
        (pin (num 2) (name ~) (type passive))))
    (libpart (lib LED) (part LD271)
      (aliases
        (alias SFH4546)
        (alias CQY99)
        (alias LD274)
        (alias SFH4550))
      (description "940nm IR-LED, 5mm")
      (docs http://www.alliedelec.com/m/d/40788c34903a719969df15f1fbea1056.pdf)
      (footprints
        (fp LED*5.0mm*IRGrey*))
      (fields
        (field (name Reference) D)
        (field (name Value) LD271)
        (field (name Footprint) LED_THT:LED_D5.0mm_IRGrey))
      (pins
        (pin (num 1) (name K) (type passive))
        (pin (num 2) (name A) (type passive))))
    (libpart (lib PCB-TEMP2-rescue) (part Arduino_Nano_v3.x-MCU_Module)
      (footprints
        (fp Arduino*Nano*))
      (fields
        (field (name Reference) A)
        (field (name Value) Arduino_Nano_v3.x-MCU_Module)
        (field (name Footprint) Module:Arduino_Nano))
      (pins
        (pin (num 1) (name D1/TX) (type BiDi))
        (pin (num 2) (name D0/RX) (type BiDi))
        (pin (num 3) (name RESET) (type input))
        (pin (num 4) (name GND) (type power_in))
        (pin (num 5) (name D2) (type BiDi))
        (pin (num 6) (name D3) (type BiDi))
        (pin (num 7) (name D4) (type BiDi))
        (pin (num 8) (name D5) (type BiDi))
        (pin (num 9) (name D6) (type BiDi))
        (pin (num 10) (name D7) (type BiDi))
        (pin (num 11) (name D8) (type BiDi))
        (pin (num 12) (name D9) (type BiDi))
        (pin (num 13) (name D10) (type BiDi))
        (pin (num 14) (name D11) (type BiDi))
        (pin (num 15) (name D12) (type BiDi))
        (pin (num 16) (name D13) (type BiDi))
        (pin (num 17) (name 3V3) (type power_out))
        (pin (num 18) (name AREF) (type input))
        (pin (num 19) (name A0) (type BiDi))
        (pin (num 20) (name A1) (type BiDi))
        (pin (num 21) (name A2) (type BiDi))
        (pin (num 22) (name A3) (type BiDi))
        (pin (num 23) (name A4) (type BiDi))
        (pin (num 24) (name A5) (type BiDi))
        (pin (num 25) (name A6) (type BiDi))
        (pin (num 26) (name A7) (type BiDi))
        (pin (num 27) (name +5V) (type power_out))
        (pin (num 28) (name RESET) (type input))
        (pin (num 29) (name GND) (type power_in))
        (pin (num 30) (name VIN) (type power_in))))
    (libpart (lib PCB-TEMP2-rescue) (part MPU-92_65-MPU-92_65)
      (fields
        (field (name Reference) U)
        (field (name Value) MPU-92_65-MPU-92_65))
      (pins
        (pin (num 1) (name VCC) (type input))
        (pin (num 2) (name GND) (type input))
        (pin (num 3) (name SCL) (type input))
        (pin (num 4) (name SDA) (type input))
        (pin (num 5) (name EDA) (type input))
        (pin (num 6) (name ECL) (type input))
        (pin (num 7) (name ADO) (type input))
        (pin (num 8) (name INT) (type input))
        (pin (num 9) (name NCS) (type input))
        (pin (num 10) (name FSYNC) (type input))))
    (libpart (lib PCB-TEMP2-rescue) (part Mechanical_MountingHole-PCB-TEMP-rescue)
      (footprints
        (fp MountingHole*))
      (fields
        (field (name Reference) H)
        (field (name Value) Mechanical_MountingHole-PCB-TEMP-rescue)))
    (libpart (lib PCB-TEMP2-rescue) (part SOLAR_PCbus-PCB-TEMP-rescue)
      (fields
        (field (name Reference) U)
        (field (name Value) SOLAR_PCbus-PCB-TEMP-rescue))
      (pins
        (pin (num 1) (name ~) (type unspc))
        (pin (num 2) (name ~) (type unspc))
        (pin (num 3) (name ~) (type unspc))
        (pin (num 4) (name ~) (type unspc))
        (pin (num 5) (name ~) (type unspc))
        (pin (num 6) (name ~) (type unspc))
        (pin (num 7) (name ~) (type unspc))
        (pin (num 8) (name ~) (type unspc))
        (pin (num 9) (name ~) (type unspc))
        (pin (num 10) (name ~) (type unspc))
        (pin (num 11) (name ~) (type unspc))
        (pin (num 12) (name ~) (type unspc))
        (pin (num 13) (name ~) (type unspc))
        (pin (num 14) (name ~) (type unspc))
        (pin (num 15) (name ~) (type unspc))
        (pin (num 16) (name ~) (type unspc))
        (pin (num 17) (name ~) (type unspc))
        (pin (num 18) (name ~) (type unspc))
        (pin (num 19) (name ~) (type unspc))
        (pin (num 20) (name ~) (type unspc))
        (pin (num 21) (name ~) (type unspc))
        (pin (num 22) (name ~) (type unspc))
        (pin (num 23) (name ~) (type unspc))
        (pin (num 24) (name ~) (type unspc))
        (pin (num 25) (name ~) (type unspc))
        (pin (num 26) (name ~) (type unspc))
        (pin (num 27) (name ~) (type unspc))
        (pin (num 28) (name ~) (type unspc))
        (pin (num 29) (name ~) (type unspc))
        (pin (num 30) (name ~) (type unspc))
        (pin (num 31) (name ~) (type unspc))
        (pin (num 32) (name ~) (type unspc))
        (pin (num 33) (name ~) (type unspc))
        (pin (num 34) (name ~) (type unspc))
        (pin (num 35) (name ~) (type unspc))
        (pin (num 36) (name ~) (type unspc))
        (pin (num 37) (name ~) (type unspc))
        (pin (num 38) (name ~) (type unspc))
        (pin (num 39) (name ~) (type unspc))
        (pin (num 40) (name ~) (type unspc))
        (pin (num 41) (name ~) (type unspc))
        (pin (num 42) (name ~) (type unspc))
        (pin (num 43) (name ~) (type unspc))
        (pin (num 44) (name ~) (type unspc))
        (pin (num 45) (name ~) (type unspc))
        (pin (num 46) (name ~) (type unspc))
        (pin (num 47) (name ~) (type unspc))
        (pin (num 48) (name ~) (type unspc))
        (pin (num 49) (name ~) (type unspc))
        (pin (num 50) (name ~) (type unspc))
        (pin (num 51) (name ~) (type unspc))
        (pin (num 52) (name ~) (type unspc))
        (pin (num 53) (name ~) (type unspc))
        (pin (num 54) (name ~) (type unspc))
        (pin (num 55) (name ~) (type unspc))
        (pin (num 56) (name ~) (type unspc))
        (pin (num 57) (name ~) (type unspc))
        (pin (num 58) (name ~) (type unspc))
        (pin (num 59) (name ~) (type unspc))
        (pin (num 60) (name ~) (type unspc))
        (pin (num 61) (name ~) (type unspc))
        (pin (num 62) (name ~) (type unspc))
        (pin (num 63) (name ~) (type unspc))
        (pin (num 64) (name ~) (type unspc))
        (pin (num 65) (name ~) (type unspc))
        (pin (num 66) (name ~) (type unspc))
        (pin (num 67) (name ~) (type unspc))
        (pin (num 68) (name ~) (type unspc))
        (pin (num 69) (name ~) (type unspc))
        (pin (num 70) (name ~) (type unspc))
        (pin (num 71) (name ~) (type unspc))
        (pin (num 72) (name ~) (type unspc))
        (pin (num 73) (name ~) (type unspc))
        (pin (num 74) (name ~) (type unspc))
        (pin (num 75) (name ~) (type unspc))
        (pin (num 76) (name ~) (type unspc))
        (pin (num 77) (name ~) (type unspc))
        (pin (num 78) (name ~) (type unspc))
        (pin (num 79) (name ~) (type unspc))
        (pin (num 80) (name ~) (type unspc))
        (pin (num 81) (name ~) (type unspc))
        (pin (num 82) (name ~) (type unspc))
        (pin (num 83) (name ~) (type unspc))
        (pin (num 84) (name ~) (type unspc))
        (pin (num 85) (name ~) (type unspc))
        (pin (num 86) (name ~) (type unspc))
        (pin (num 87) (name ~) (type unspc))
        (pin (num 88) (name ~) (type unspc))
        (pin (num 89) (name ~) (type unspc))
        (pin (num 90) (name ~) (type unspc))
        (pin (num 91) (name ~) (type unspc))
        (pin (num 92) (name ~) (type unspc))
        (pin (num 93) (name ~) (type unspc))
        (pin (num 94) (name ~) (type unspc))
        (pin (num 95) (name ~) (type unspc))
        (pin (num 96) (name ~) (type unspc))
        (pin (num 97) (name ~) (type unspc))
        (pin (num 98) (name ~) (type unspc))
        (pin (num 99) (name ~) (type unspc))
        (pin (num 100) (name ~) (type unspc))
        (pin (num 101) (name ~) (type unspc))
        (pin (num 102) (name ~) (type unspc))
        (pin (num 103) (name ~) (type unspc))
        (pin (num 104) (name ~) (type unspc))))
    (libpart (lib pspice) (part INDUCTOR)
      (description "Inductor symbol for simulation only")
      (docs ~)
      (fields
        (field (name Reference) L)
        (field (name Value) INDUCTOR))
      (pins
        (pin (num 1) (name 1) (type input))
        (pin (num 2) (name 2) (type input)))))
  (libraries
    (library (logical 2N7002-7-F)
      (uri C:\Users\epica\Documents\gitTest\1cu-earth-analogue\2N7002-7-F.lib))
    (library (logical BSS84-7)
      (uri C:\Users\epica\Documents\gitTest\1cu-earth-analogue\BSS84-7.lib))
    (library (logical Device)
      (uri "C:\\Program Files\\KiCad\\share\\kicad\\library/Device.lib"))
    (library (logical LED)
      (uri "C:\\Program Files\\KiCad\\share\\kicad\\library/LED.lib"))
    (library (logical PCB-TEMP2-rescue)
      (uri "C:\\Users\\epica\\Documents\\gitTest\\1cu-earth-analogue/PCB TEMP2-rescue.lib"))
    (library (logical pspice)
      (uri "C:\\Program Files\\KiCad\\share\\kicad\\library/pspice.lib")))
  (nets
    (net (code 1) (name /D_3)
      (node (ref A1) (pin 6)))
    (net (code 2) (name /D_5)
      (node (ref A1) (pin 8)))
    (net (code 3) (name /D_6)
      (node (ref A1) (pin 9)))
    (net (code 4) (name "Net-(IX1_ON1-Pad1)")
      (node (ref L1) (pin 1))
      (node (ref IX1_ON1) (pin 1))
      (node (ref U3) (pin 2)))
    (net (code 5) (name "Net-(A1-Pad3)")
      (node (ref A1) (pin 3)))
    (net (code 6) (name "Net-(IX2_ON1-Pad1)")
      (node (ref U10) (pin 2))
      (node (ref IX2_ON1) (pin 1))
      (node (ref L1) (pin 2)))
    (net (code 7) (name "Net-(IX1_ON1-Pad2)")
      (node (ref U4) (pin 2))
      (node (ref IX1_ON1) (pin 2)))
    (net (code 8) (name "Net-(IX2_ON1-Pad2)")
      (node (ref U9) (pin 2))
      (node (ref IX2_ON1) (pin 2)))
    (net (code 9) (name "Net-(A1-Pad20)")
      (node (ref A1) (pin 20)))
    (net (code 10) (name /D_9)
      (node (ref A1) (pin 12)))
    (net (code 11) (name /D_10)
      (node (ref A1) (pin 13)))
    (net (code 12) (name /D_11)
      (node (ref A1) (pin 14)))
    (net (code 13) (name "Net-(A1-Pad17)")
      (node (ref A1) (pin 17)))
    (net (code 14) (name "Net-(A1-Pad18)")
      (node (ref A1) (pin 18)))
    (net (code 15) (name "Net-(A1-Pad19)")
      (node (ref A1) (pin 19)))
    (net (code 16) (name "Net-(A1-Pad2)")
      (node (ref A1) (pin 2)))
    (net (code 17) (name "Net-(A1-Pad21)")
      (node (ref A1) (pin 21)))
    (net (code 18) (name "Net-(A1-Pad22)")
      (node (ref A1) (pin 22)))
    (net (code 19) (name "Net-(A1-Pad25)")
      (node (ref A1) (pin 25)))
    (net (code 20) (name "Net-(A1-Pad26)")
      (node (ref A1) (pin 26)))
    (net (code 21) (name "Net-(A1-Pad27)")
      (node (ref A1) (pin 27)))
    (net (code 22) (name "Net-(A1-Pad28)")
      (node (ref A1) (pin 28)))
    (net (code 23) (name GND)
      (node (ref U6) (pin 3))
      (node (ref U14) (pin 3))
      (node (ref R5) (pin 2))
      (node (ref U13) (pin 3))
      (node (ref R3) (pin 2))
      (node (ref U5) (pin 3))
      (node (ref U1) (pin 9))
      (node (ref U1) (pin 86))
      (node (ref U1) (pin 85))
      (node (ref U1) (pin 84))
      (node (ref U1) (pin 83))
      (node (ref R6) (pin 2))
      (node (ref R4) (pin 2))
      (node (ref U3) (pin 3))
      (node (ref R1) (pin 2))
      (node (ref VPP_ON1) (pin 1))
      (node (ref A1) (pin 29))
      (node (ref A1) (pin 4))
      (node (ref U1) (pin 1))
      (node (ref U10) (pin 3))
      (node (ref R2) (pin 2))
      (node (ref U1) (pin 13))
      (node (ref U1) (pin 51))
      (node (ref U1) (pin 47))
      (node (ref U1) (pin 104))
      (node (ref U1) (pin 5))
      (node (ref U1) (pin 43))
      (node (ref U1) (pin 17))
      (node (ref U1) (pin 21))
      (node (ref U1) (pin 63))
      (node (ref U2) (pin 9))
      (node (ref U1) (pin 65))
      (node (ref U1) (pin 66))
      (node (ref VCC_ON1) (pin 1))
      (node (ref U1) (pin 25))
      (node (ref U1) (pin 29))
      (node (ref U1) (pin 35))
      (node (ref U1) (pin 39))
      (node (ref U1) (pin 59))
      (node (ref U1) (pin 103))
      (node (ref U1) (pin 55)))
    (net (code 24) (name +3V3)
      (node (ref U1) (pin 101))
      (node (ref U1) (pin 100))
      (node (ref U1) (pin 14))
      (node (ref U1) (pin 20))
      (node (ref U1) (pin 102))
      (node (ref U1) (pin 81))
      (node (ref U1) (pin 64))
      (node (ref U1) (pin 34))
      (node (ref U1) (pin 80))
      (node (ref U1) (pin 99))
      (node (ref U1) (pin 98))
      (node (ref U1) (pin 97))
      (node (ref U1) (pin 82))
      (node (ref U1) (pin 79))
      (node (ref U1) (pin 78))
      (node (ref U1) (pin 77))
      (node (ref U2) (pin 10))
      (node (ref VPP_ON1) (pin 2)))
    (net (code 25) (name +5V)
      (node (ref U1) (pin 75))
      (node (ref U1) (pin 76))
      (node (ref U1) (pin 70))
      (node (ref VCC_ON1) (pin 2))
      (node (ref U12) (pin 3))
      (node (ref U1) (pin 31))
      (node (ref U1) (pin 11))
      (node (ref U1) (pin 74))
      (node (ref U1) (pin 2))
      (node (ref U1) (pin 23))
      (node (ref U1) (pin 72))
      (node (ref U1) (pin 67))
      (node (ref U1) (pin 68))
      (node (ref U1) (pin 69))
      (node (ref U1) (pin 71))
      (node (ref U1) (pin 73))
      (node (ref U4) (pin 3))
      (node (ref A1) (pin 30))
      (node (ref PULLUP_2) (pin 1))
      (node (ref PULLUP_1) (pin 1))
      (node (ref U9) (pin 3))
      (node (ref U1) (pin 91))
      (node (ref U11) (pin 3))
      (node (ref U1) (pin 87))
      (node (ref U1) (pin 96))
      (node (ref U1) (pin 88))
      (node (ref U1) (pin 95))
      (node (ref U1) (pin 94))
      (node (ref U1) (pin 93))
      (node (ref U1) (pin 92))
      (node (ref U7) (pin 3))
      (node (ref U1) (pin 90))
      (node (ref U1) (pin 89))
      (node (ref U8) (pin 3)))
    (net (code 26) (name "Net-(U2-Pad1)")
      (node (ref U2) (pin 1)))
    (net (code 27) (name "Net-(U2-Pad2)")
      (node (ref U2) (pin 2)))
    (net (code 28) (name "Net-(U2-Pad3)")
      (node (ref U2) (pin 3)))
    (net (code 29) (name "Net-(U2-Pad4)")
      (node (ref U2) (pin 4)))
    (net (code 30) (name "Net-(U2-Pad5)")
      (node (ref U2) (pin 5)))
    (net (code 31) (name "Net-(U2-Pad6)")
      (node (ref U2) (pin 6)))
    (net (code 32) (name /D_7)
      (node (ref R3) (pin 1))
      (node (ref U7) (pin 1))
      (node (ref U5) (pin 1))
      (node (ref A1) (pin 10)))
    (net (code 33) (name /D_2)
      (node (ref U3) (pin 1))
      (node (ref A1) (pin 5))
      (node (ref U4) (pin 1))
      (node (ref R1) (pin 1)))
    (net (code 34) (name /D_4)
      (node (ref U9) (pin 1))
      (node (ref R2) (pin 1))
      (node (ref U10) (pin 1))
      (node (ref A1) (pin 7)))
    (net (code 35) (name /D_8)
      (node (ref R5) (pin 1))
      (node (ref U13) (pin 1))
      (node (ref U11) (pin 1))
      (node (ref A1) (pin 11)))
    (net (code 36) (name /D_12)
      (node (ref A1) (pin 15)))
    (net (code 37) (name /D_13)
      (node (ref R6) (pin 1))
      (node (ref U14) (pin 1))
      (node (ref A1) (pin 16))
      (node (ref U12) (pin 1)))
    (net (code 38) (name "Net-(A1-Pad1)")
      (node (ref A1) (pin 1)))
    (net (code 39) (name "Net-(R4-Pad1)")
      (node (ref U6) (pin 1))
      (node (ref U8) (pin 1))
      (node (ref R4) (pin 1)))
    (net (code 40) (name "Net-(IX2_ON3-Pad2)")
      (node (ref IX2_ON3) (pin 2))
      (node (ref U12) (pin 2)))
    (net (code 41) (name "Net-(IX1_ON3-Pad2)")
      (node (ref IX1_ON3) (pin 2))
      (node (ref U8) (pin 2)))
    (net (code 42) (name "Net-(IX1_ON3-Pad1)")
      (node (ref L3) (pin 1))
      (node (ref IX1_ON3) (pin 1))
      (node (ref U6) (pin 2)))
    (net (code 43) (name "Net-(IX2_ON3-Pad1)")
      (node (ref L3) (pin 2))
      (node (ref U14) (pin 2))
      (node (ref IX2_ON3) (pin 1)))
    (net (code 44) (name "Net-(IX1_ON2-Pad2)")
      (node (ref U7) (pin 2))
      (node (ref IX1_ON2) (pin 2)))
    (net (code 45) (name "Net-(IX2_ON2-Pad1)")
      (node (ref IX2_ON2) (pin 1))
      (node (ref U13) (pin 2))
      (node (ref L2) (pin 2)))
    (net (code 46) (name "Net-(IX2_ON2-Pad2)")
      (node (ref IX2_ON2) (pin 2))
      (node (ref U11) (pin 2)))
    (net (code 47) (name "Net-(IX1_ON2-Pad1)")
      (node (ref L2) (pin 1))
      (node (ref IX1_ON2) (pin 1))
      (node (ref U5) (pin 2)))
    (net (code 48) (name "Net-(U1-Pad49)")
      (node (ref U1) (pin 49)))
    (net (code 49) (name "Net-(U1-Pad48)")
      (node (ref U1) (pin 48)))
    (net (code 50) (name "Net-(U1-Pad33)")
      (node (ref U1) (pin 33)))
    (net (code 51) (name "Net-(U1-Pad53)")
      (node (ref U1) (pin 53)))
    (net (code 52) (name "Net-(U1-Pad54)")
      (node (ref U1) (pin 54)))
    (net (code 53) (name "Net-(U1-Pad22)")
      (node (ref U1) (pin 22)))
    (net (code 54) (name "Net-(U1-Pad24)")
      (node (ref U1) (pin 24)))
    (net (code 55) (name "Net-(U1-Pad26)")
      (node (ref U1) (pin 26)))
    (net (code 56) (name "Net-(U1-Pad50)")
      (node (ref U1) (pin 50)))
    (net (code 57) (name "Net-(U1-Pad52)")
      (node (ref U1) (pin 52)))
    (net (code 58) (name /POW14)
      (node (ref U1) (pin 27)))
    (net (code 59) (name /POW15)
      (node (ref U1) (pin 28)))
    (net (code 60) (name /OBC1)
      (node (ref U1) (pin 3)))
    (net (code 61) (name /POW16)
      (node (ref U1) (pin 30)))
    (net (code 62) (name /POW17)
      (node (ref U1) (pin 32)))
    (net (code 63) (name /OBC6)
      (node (ref U1) (pin 36)))
    (net (code 64) (name /OBC7)
      (node (ref U1) (pin 37)))
    (net (code 65) (name /OBC8)
      (node (ref U1) (pin 38)))
    (net (code 66) (name /OBC2)
      (node (ref U1) (pin 4)))
    (net (code 67) (name /POW1)
      (node (ref U1) (pin 40)))
    (net (code 68) (name /POW2)
      (node (ref U1) (pin 41)))
    (net (code 69) (name /POW3)
      (node (ref U1) (pin 42)))
    (net (code 70) (name /POW9)
      (node (ref U1) (pin 15)))
    (net (code 71) (name /POW4)
      (node (ref U1) (pin 10)))
    (net (code 72) (name /POW5)
      (node (ref U1) (pin 12)))
    (net (code 73) (name /POW10)
      (node (ref U1) (pin 16)))
    (net (code 74) (name /DASW1)
      (node (ref U1) (pin 18)))
    (net (code 75) (name /DASW2)
      (node (ref U1) (pin 19)))
    (net (code 76) (name /OBC4)
      (node (ref U1) (pin 7)))
    (net (code 77) (name /POW13)
      (node (ref U1) (pin 62)))
    (net (code 78) (name /OBC5)
      (node (ref U1) (pin 8)))
    (net (code 79) (name /POW6)
      (node (ref U1) (pin 44)))
    (net (code 80) (name /POW7)
      (node (ref U1) (pin 45)))
    (net (code 81) (name /POW8)
      (node (ref U1) (pin 46)))
    (net (code 82) (name "Net-(U1-Pad56)")
      (node (ref U1) (pin 56)))
    (net (code 83) (name "Net-(U1-Pad57)")
      (node (ref U1) (pin 57)))
    (net (code 84) (name "Net-(U1-Pad58)")
      (node (ref U1) (pin 58)))
    (net (code 85) (name /OBC3)
      (node (ref U1) (pin 6)))
    (net (code 86) (name /POW11)
      (node (ref U1) (pin 60)))
    (net (code 87) (name /POW12)
      (node (ref U1) (pin 61)))
    (net (code 88) (name /I2C_SDA)
      (node (ref A1) (pin 23))
      (node (ref PULLUP_1) (pin 2))
      (node (ref U2) (pin 7)))
    (net (code 89) (name /I2C_SCL)
      (node (ref U2) (pin 8))
      (node (ref PULLUP_2) (pin 2))
      (node (ref A1) (pin 24)))))