EESchema Schematic File Version 4
EELAYER 30 0
EELAYER END
$Descr A4 11693 8268
encoding utf-8
Sheet 1 1
Title ""
Date ""
Rev ""
Comp ""
Comment1 ""
Comment2 ""
Comment3 ""
Comment4 ""
$EndDescr
$Comp
L PCB-TEMP2-rescue:Mechanical_MountingHole-PCB-TEMP-rescue MH1
U 1 1 5C70847C
P 4850 3050
F 0 "MH1" H 4950 3096 50  0000 L CNN
F 1 "MountingHole" H 4950 3005 50  0000 L CNN
F 2 "MountingHole:MountingHole_3mm" H 4850 3050 50  0001 C CNN
F 3 "~" H 4850 3050 50  0001 C CNN
	1    4850 3050
	1    0    0    -1  
$EndComp
$Comp
L PCB-TEMP2-rescue:Mechanical_MountingHole-PCB-TEMP-rescue MH3
U 1 1 5C70850E
P 4850 1700
F 0 "MH3" H 4950 1746 50  0000 L CNN
F 1 "MountingHole" H 4950 1655 50  0000 L CNN
F 2 "MountingHole:MountingHole_3mm" H 4850 1700 50  0001 C CNN
F 3 "~" H 4850 1700 50  0001 C CNN
	1    4850 1700
	1    0    0    -1  
$EndComp
$Comp
L PCB-TEMP2-rescue:Mechanical_MountingHole-PCB-TEMP-rescue MH4
U 1 1 5C70857C
P 4850 2150
F 0 "MH4" H 4950 2196 50  0000 L CNN
F 1 "MountingHole" H 4950 2105 50  0000 L CNN
F 2 "MountingHole:MountingHole_3mm" H 4850 2150 50  0001 C CNN
F 3 "~" H 4850 2150 50  0001 C CNN
	1    4850 2150
	1    0    0    -1  
$EndComp
$Comp
L PCB-TEMP2-rescue:Mechanical_MountingHole-PCB-TEMP-rescue MH2
U 1 1 5C7085DC
P 4850 2600
F 0 "MH2" H 4950 2646 50  0000 L CNN
F 1 "MountingHole" H 4950 2555 50  0000 L CNN
F 2 "MountingHole:MountingHole_3mm" H 4850 2600 50  0001 C CNN
F 3 "~" H 4850 2600 50  0001 C CNN
	1    4850 2600
	1    0    0    -1  
$EndComp
$Comp
L PCB-TEMP2-rescue:SOLAR_PCbus-PCB-TEMP-rescue U1
U 1 1 5C713480
P 2100 1650
F 0 "U1" H 3141 1321 50  0000 L CNN
F 1 "PCbus" H 3141 1230 50  0000 L CNN
F 2 "PC_BUS:BUS PC104" H 2100 1650 50  0001 C CNN
F 3 "" H 2100 1650 50  0001 C CNN
	1    2100 1650
	1    0    0    -1  
$EndComp
NoConn ~ 3650 2950
NoConn ~ 3650 2850
NoConn ~ 3650 2800
NoConn ~ 3650 2750
NoConn ~ 3650 2000
NoConn ~ 3400 3200
NoConn ~ 3350 3200
NoConn ~ 3200 1450
NoConn ~ 3300 1450
NoConn ~ 3400 1450
Wire Wire Line
	3650 1800 3850 1800
Wire Wire Line
	2150 1450 2150 1250
Wire Wire Line
	3350 1250 3350 1450
Wire Wire Line
	3150 1450 3150 1250
Connection ~ 3150 1250
Wire Wire Line
	1950 1250 2150 1250
Wire Wire Line
	2950 1450 2950 1250
Connection ~ 2950 1250
Wire Wire Line
	2750 1450 2750 1250
Connection ~ 2750 1250
Wire Wire Line
	2550 1450 2550 1250
Connection ~ 2550 1250
Wire Wire Line
	2350 1450 2350 1250
Connection ~ 2350 1250
Wire Wire Line
	1950 1250 1950 1400
Connection ~ 2150 1250
$Comp
L PCB-TEMP2-rescue:power_GND-PCB-TEMP-rescue #PWR01
U 1 1 5C7BAF9B
P 1950 1400
F 0 "#PWR01" H 1950 1150 50  0001 C CNN
F 1 "GND" H 1955 1227 50  0000 C CNN
F 2 "" H 1950 1400 50  0001 C CNN
F 3 "" H 1950 1400 50  0001 C CNN
	1    1950 1400
	1    0    0    -1  
$EndComp
Wire Wire Line
	3650 2100 3850 2100
Wire Wire Line
	3850 3400 3850 2900
Wire Wire Line
	3850 2900 3650 2900
Connection ~ 3850 2100
Wire Wire Line
	3850 2300 3650 2300
Connection ~ 3850 2300
Wire Wire Line
	3850 2500 3650 2500
Connection ~ 3850 2500
Wire Wire Line
	3850 2700 3650 2700
Connection ~ 3850 2700
Wire Wire Line
	2900 3200 2900 3400
Connection ~ 3850 2900
Wire Wire Line
	3300 3200 3300 3400
Connection ~ 3300 3400
Wire Wire Line
	2750 3400 2800 3400
$Comp
L PCB-TEMP2-rescue:power_GND-PCB-TEMP-rescue #PWR02
U 1 1 5C7BC2F5
P 3850 3400
F 0 "#PWR02" H 3850 3150 50  0001 C CNN
F 1 "GND" H 3855 3227 50  0000 C CNN
F 2 "" H 3850 3400 50  0001 C CNN
F 3 "" H 3850 3400 50  0001 C CNN
	1    3850 3400
	1    0    0    -1  
$EndComp
Connection ~ 3850 3400
Wire Wire Line
	2750 3200 2750 3400
Connection ~ 2900 3400
Wire Wire Line
	2800 3200 2800 3400
Connection ~ 2800 3400
Wire Wire Line
	1900 1700 1700 1700
Wire Wire Line
	1700 1700 1700 1750
Wire Wire Line
	1700 2750 1900 2750
Connection ~ 1700 2750
Wire Wire Line
	1700 2700 1900 2700
Connection ~ 1700 2700
Wire Wire Line
	1700 2650 1900 2650
Connection ~ 1700 2650
Wire Wire Line
	1700 2600 1900 2600
Wire Wire Line
	1700 1750 1900 1750
$Comp
L PCB-TEMP2-rescue:power_GND-PCB-TEMP-rescue #PWR03
U 1 1 5C7BFE55
P 1700 2950
F 0 "#PWR03" H 1700 2700 50  0001 C CNN
F 1 "GND" H 1705 2777 50  0000 C CNN
F 2 "" H 1700 2950 50  0001 C CNN
F 3 "" H 1700 2950 50  0001 C CNN
	1    1700 2950
	1    0    0    -1  
$EndComp
Wire Wire Line
	1900 3200 2150 3200
Wire Wire Line
	1900 2800 1900 2850
Text Label 2200 1450 1    30   ~ 0
5V
Text Label 3650 2050 0    30   ~ 0
3V3
Text Label 3650 1900 0    30   ~ 0
5V
Text Label 2850 3200 3    30   ~ 0
3V3
Text Label 2650 1450 1    30   ~ 0
5V
Text Label 3250 1450 1    30   ~ 0
5V
Text Label 3100 1450 1    30   ~ 0
3V3
Text Label 2800 1450 1    30   ~ 0
3V3
Text Label 2250 1450 1    30   ~ 0
OBC1
Text Label 2300 1450 1    30   ~ 0
OBC2
Text Label 2400 1450 1    30   ~ 0
OBC3
Text Label 2450 1450 1    30   ~ 0
OBC4
Text Label 2500 1450 1    30   ~ 0
OBC5
Text Label 3650 2150 0    30   ~ 0
OBC6
Text Label 3650 2200 0    30   ~ 0
OBC7
Text Label 3650 2250 0    30   ~ 0
OBC8
Text Label 3650 2350 0    30   ~ 0
POW1
Text Label 3650 2400 0    30   ~ 0
POW2
Text Label 3650 2450 0    30   ~ 0
POW3
Text Label 2600 1450 1    30   ~ 0
POW4
Text Label 2700 1450 1    30   ~ 0
POW5
Text Label 3650 2550 0    30   ~ 0
POW6
Text Label 3650 2600 0    30   ~ 0
POW7
Text Label 3650 2650 0    30   ~ 0
POW8
Text Label 2850 1450 1    30   ~ 0
POW9
Text Label 2900 1450 1    30   ~ 0
POW10
Text Label 3050 3200 3    30   ~ 0
POW11
Text Label 3000 3200 3    30   ~ 0
POW12
Text Label 2950 3200 3    30   ~ 0
POW13
Text Label 3650 1700 0    30   ~ 0
POW14
Text Label 3650 1750 0    30   ~ 0
POW15
Text Label 3650 1850 0    30   ~ 0
POW16
Text Label 3650 1950 0    30   ~ 0
POW17
Connection ~ 3100 3400
Wire Wire Line
	3100 3200 3100 3400
NoConn ~ 3150 3200
NoConn ~ 3200 3200
NoConn ~ 3250 3200
Connection ~ 1900 2000
Connection ~ 1900 1950
Connection ~ 1900 1900
Connection ~ 1900 1850
Connection ~ 2150 3200
Connection ~ 1900 2950
Connection ~ 1900 2900
Connection ~ 1900 2850
Connection ~ 1900 2500
Connection ~ 1900 2450
Connection ~ 1900 2400
Connection ~ 1900 2350
Connection ~ 1900 2300
Connection ~ 1900 2250
Connection ~ 1900 2200
Connection ~ 1900 2150
Connection ~ 2650 3200
Connection ~ 2600 3200
Connection ~ 2550 3200
Connection ~ 2500 3200
Connection ~ 2450 3200
Connection ~ 2400 3200
Connection ~ 2350 3200
Connection ~ 2300 3200
Wire Wire Line
	1900 1800 1900 1850
Wire Wire Line
	1900 2100 1900 2150
Wire Wire Line
	2250 3200 2300 3200
Text Label 3000 1450 1    30   ~ 0
DASW1
Text Label 3050 1450 1    30   ~ 0
DASW2
Wire Wire Line
	3150 1250 3350 1250
Wire Wire Line
	2950 1250 3150 1250
Wire Wire Line
	2750 1250 2950 1250
Wire Wire Line
	2550 1250 2750 1250
Wire Wire Line
	2350 1250 2550 1250
Wire Wire Line
	2150 1250 2350 1250
Wire Wire Line
	3850 2100 3850 1800
Wire Wire Line
	3850 2300 3850 2100
Wire Wire Line
	3850 2500 3850 2300
Wire Wire Line
	3850 2700 3850 2500
Wire Wire Line
	3850 2900 3850 2700
Wire Wire Line
	3300 3400 3850 3400
Wire Wire Line
	2900 3400 3100 3400
Wire Wire Line
	2800 3400 2900 3400
Wire Wire Line
	1700 2750 1700 2950
Wire Wire Line
	1700 2700 1700 2750
Wire Wire Line
	1700 2650 1700 2700
Wire Wire Line
	1700 2600 1700 2650
Wire Wire Line
	3100 3400 3300 3400
Wire Wire Line
	1900 2000 1900 2050
Wire Wire Line
	1900 1950 1900 2000
Wire Wire Line
	1900 1900 1900 1950
Wire Wire Line
	1900 1850 1900 1900
Wire Wire Line
	2150 3200 2200 3200
Wire Wire Line
	1900 2950 1900 3200
Wire Wire Line
	1900 2900 1900 2950
Wire Wire Line
	1900 2850 1900 2900
Wire Wire Line
	1900 2500 1900 2550
Wire Wire Line
	1900 2450 1900 2500
Wire Wire Line
	1900 2400 1900 2450
Wire Wire Line
	1900 2350 1900 2400
Wire Wire Line
	1900 2300 1900 2350
Wire Wire Line
	1900 2250 1900 2300
Wire Wire Line
	1900 2200 1900 2250
Wire Wire Line
	1900 2150 1900 2200
Wire Wire Line
	2650 3200 2700 3200
Wire Wire Line
	2600 3200 2650 3200
Wire Wire Line
	2550 3200 2600 3200
Wire Wire Line
	2500 3200 2550 3200
Wire Wire Line
	2450 3200 2500 3200
Wire Wire Line
	2400 3200 2450 3200
Wire Wire Line
	2350 3200 2400 3200
Wire Wire Line
	2300 3200 2350 3200
Text Label 7150 1300 1    50   ~ 0
VCC
Text Label 9750 1300 1    50   ~ 0
VCC
$Comp
L power:PWR_FLAG #FLG0101
U 1 1 5F30BA50
P 7900 3900
F 0 "#FLG0101" H 7900 3975 50  0001 C CNN
F 1 "PWR_FLAG" H 7900 4073 50  0000 C CNN
F 2 "" H 7900 3900 50  0001 C CNN
F 3 "~" H 7900 3900 50  0001 C CNN
	1    7900 3900
	1    0    0    -1  
$EndComp
Text Label 1650 5050 2    50   ~ 0
D_3
Text Label 1650 5250 2    50   ~ 0
D_5
Text Label 1650 5350 2    50   ~ 0
D_6
Text Label 1650 5650 2    50   ~ 0
D_9
Text Label 1650 5750 2    50   ~ 0
D_10
Text Label 1650 5850 2    50   ~ 0
D_11
Text Label 6100 1450 2    50   ~ 0
D_2
Text Label 8150 1450 2    50   ~ 0
D_4
Text Label 8700 1450 2    50   ~ 0
D_7
Text Label 10750 1450 2    50   ~ 0
D_8
Text Label 11100 3400 2    50   ~ 0
D_12
Text Label 10750 4250 2    50   ~ 0
D_13
Wire Wire Line
	2200 4150 2200 4250
Text Label 2200 4150 2    50   ~ 0
VCC
Wire Wire Line
	5450 4600 5650 4600
Text Label 5650 4600 0    50   ~ 0
VPP
$Comp
L power:GND #PWR0101
U 1 1 5F3EE5FA
P 5450 4750
F 0 "#PWR0101" H 5450 4500 50  0001 C CNN
F 1 "GND" V 5455 4622 50  0000 R CNN
F 2 "" H 5450 4750 50  0001 C CNN
F 3 "" H 5450 4750 50  0001 C CNN
	1    5450 4750
	0    -1   -1   0   
$EndComp
Wire Wire Line
	2800 5750 2900 5750
Wire Wire Line
	2800 5850 2950 5850
Text Label 3000 5850 0    50   ~ 0
I2C_SCL
Text Label 3000 5750 0    50   ~ 0
I2C_SDA
Wire Wire Line
	5450 4900 5700 4900
Wire Wire Line
	5450 5050 5700 5050
Text Label 5700 4900 0    50   ~ 0
I2C_SCL
Text Label 5700 5050 0    50   ~ 0
I2C_SDA
$Comp
L Device:R PULLUP_1
U 1 1 5F419EE6
P 2950 5250
F 0 "PULLUP_1" H 3020 5296 50  0000 L CNN
F 1 "10k" H 3020 5205 50  0000 L CNN
F 2 "Resistor_THT:R_Axial_DIN0207_L6.3mm_D2.5mm_P7.62mm_Horizontal" V 2880 5250 50  0001 C CNN
F 3 "~" H 2950 5250 50  0001 C CNN
	1    2950 5250
	1    0    0    -1  
$EndComp
Wire Wire Line
	2200 4250 2950 4250
Wire Wire Line
	2950 4250 2950 5100
Connection ~ 2200 4250
Wire Wire Line
	2200 4250 2200 4350
Wire Wire Line
	3500 4250 3500 5100
Connection ~ 2950 4250
Wire Wire Line
	2950 5850 2950 5650
Wire Wire Line
	2950 5650 3200 5650
Wire Wire Line
	3200 5650 3200 5400
Connection ~ 2950 5850
Wire Wire Line
	2950 5850 3000 5850
Wire Wire Line
	2900 5750 2900 5400
Wire Wire Line
	2900 5400 2950 5400
Connection ~ 2900 5750
Wire Wire Line
	2900 5750 3000 5750
NoConn ~ 2400 4350
NoConn ~ 2500 4350
NoConn ~ 2800 4750
NoConn ~ 2800 4850
NoConn ~ 2800 5150
NoConn ~ 2800 5350
NoConn ~ 2800 5450
NoConn ~ 2800 5550
NoConn ~ 2800 5650
NoConn ~ 2800 5950
NoConn ~ 2800 6050
NoConn ~ 1800 4850
NoConn ~ 5450 5200
NoConn ~ 5450 5350
NoConn ~ 5450 5500
NoConn ~ 5450 5800
NoConn ~ 5450 5950
NoConn ~ 5450 5650
$Comp
L Device:R PULLUP_2
U 1 1 5F419F8B
P 3500 5250
F 0 "PULLUP_2" H 3570 5296 50  0000 L CNN
F 1 "10k" H 3570 5205 50  0000 L CNN
F 2 "Resistor_THT:R_Axial_DIN0207_L6.3mm_D2.5mm_P7.62mm_Horizontal" V 3430 5250 50  0001 C CNN
F 3 "~" H 3500 5250 50  0001 C CNN
	1    3500 5250
	1    0    0    -1  
$EndComp
NoConn ~ 1800 4750
Text Label 1650 4950 2    50   ~ 0
D_2
Text Label 1650 5150 2    50   ~ 0
D_4
Text Label 1650 5450 2    50   ~ 0
D_7
Text Label 1650 5550 2    50   ~ 0
D_8
Text Label 1650 5950 2    50   ~ 0
D_12
Text Label 1650 6050 2    50   ~ 0
D_13
$Comp
L power:GND #PWR0104
U 1 1 5F7B8897
P 7900 3900
F 0 "#PWR0104" H 7900 3650 50  0001 C CNN
F 1 "GND" H 7905 3727 50  0000 C CNN
F 2 "" H 7900 3900 50  0001 C CNN
F 3 "" H 7900 3900 50  0001 C CNN
	1    7900 3900
	1    0    0    -1  
$EndComp
$Comp
L LED:CQY99 VCC_ON1
U 1 1 5F844FD2
P 6650 3850
F 0 "VCC_ON1" H 6600 4140 50  0000 C CNN
F 1 "CQY99" H 6600 4049 50  0000 C CNN
F 2 "LED_THT:LED_D5.0mm_IRGrey" H 6650 4025 50  0001 C CNN
F 3 "https://www.prtice.info/IMG/pdf/CQY99.pdf" H 6600 3850 50  0001 C CNN
	1    6650 3850
	-1   0    0    1   
$EndComp
Wire Wire Line
	6550 3850 6450 3850
Text Label 6450 3850 0    50   ~ 0
VCC
$Comp
L power:GND #PWR0108
U 1 1 5F9C45D8
P 6850 3850
F 0 "#PWR0108" H 6850 3600 50  0001 C CNN
F 1 "GND" V 6855 3722 50  0000 R CNN
F 2 "" H 6850 3850 50  0001 C CNN
F 3 "" H 6850 3850 50  0001 C CNN
	1    6850 3850
	0    -1   -1   0   
$EndComp
Wire Wire Line
	7850 5500 7850 5600
Wire Wire Line
	7900 4600 7900 4700
Text Label 7900 4650 0    50   ~ 0
VPP
Text Label 7850 5550 0    50   ~ 0
VCC
$Comp
L LED:CQY99 VPP_ON1
U 1 1 5F708551
P 6650 4550
F 0 "VPP_ON1" H 6600 4840 50  0000 C CNN
F 1 "CQY99" H 6600 4749 50  0000 C CNN
F 2 "LED_THT:LED_D5.0mm_IRGrey" H 6650 4725 50  0001 C CNN
F 3 "https://www.prtice.info/IMG/pdf/CQY99.pdf" H 6600 4550 50  0001 C CNN
	1    6650 4550
	-1   0    0    1   
$EndComp
Wire Wire Line
	6550 4550 6450 4550
Text Label 6450 4550 0    50   ~ 0
VPP
$Comp
L power:GND #PWR0109
U 1 1 5F708559
P 6850 4550
F 0 "#PWR0109" H 6850 4300 50  0001 C CNN
F 1 "GND" V 6855 4422 50  0000 R CNN
F 2 "" H 6850 4550 50  0001 C CNN
F 3 "" H 6850 4550 50  0001 C CNN
	1    6850 4550
	0    -1   -1   0   
$EndComp
Wire Wire Line
	3200 5400 3500 5400
Wire Wire Line
	2950 4250 3500 4250
$Comp
L PCB-TEMP2-rescue:MPU-92_65-MPU-92_65 U2
U 1 1 5F9FDD57
P 4950 5500
F 0 "U2" H 4942 4385 50  0000 C CNN
F 1 "MPU-92_65" H 4942 4476 50  0000 C CNN
F 2 "MPU-92:MPU-92.65" H 6850 5150 50  0001 C CNN
F 3 "" H 6850 5150 50  0001 C CNN
	1    4950 5500
	-1   0    0    1   
$EndComp
$Comp
L power:+3.3V #PWR0110
U 1 1 5F6F4F60
P 7900 4600
F 0 "#PWR0110" H 7900 4450 50  0001 C CNN
F 1 "+3.3V" H 7915 4773 50  0000 C CNN
F 2 "" H 7900 4600 50  0001 C CNN
F 3 "" H 7900 4600 50  0001 C CNN
	1    7900 4600
	1    0    0    -1  
$EndComp
$Comp
L power:+5V #PWR0111
U 1 1 5F6F4772
P 7850 5500
F 0 "#PWR0111" H 7850 5350 50  0001 C CNN
F 1 "+5V" H 7865 5673 50  0000 C CNN
F 2 "" H 7850 5500 50  0001 C CNN
F 3 "" H 7850 5500 50  0001 C CNN
	1    7850 5500
	1    0    0    -1  
$EndComp
$Comp
L power:PWR_FLAG #FLG0102
U 1 1 5F6FC6BD
P 7900 4700
F 0 "#FLG0102" H 7900 4775 50  0001 C CNN
F 1 "PWR_FLAG" H 7900 4873 50  0000 C CNN
F 2 "" H 7900 4700 50  0001 C CNN
F 3 "~" H 7900 4700 50  0001 C CNN
	1    7900 4700
	-1   0    0    1   
$EndComp
$Comp
L power:PWR_FLAG #FLG0103
U 1 1 5F6FBE5F
P 7850 5600
F 0 "#FLG0103" H 7850 5675 50  0001 C CNN
F 1 "PWR_FLAG" H 7850 5773 50  0000 C CNN
F 2 "" H 7850 5600 50  0001 C CNN
F 3 "~" H 7850 5600 50  0001 C CNN
	1    7850 5600
	-1   0    0    1   
$EndComp
Wire Wire Line
	2500 3200 2500 3400
Text Label 2500 3400 0    30   ~ 0
5V
Text Label 2500 3400 3    50   ~ 0
VCC
Connection ~ 1700 1750
Connection ~ 1700 2600
Wire Wire Line
	1700 1750 1700 2600
Wire Wire Line
	1450 1900 1900 1900
Wire Wire Line
	1450 2250 1900 2250
Text Label 1450 1900 2    50   ~ 0
VPP
Text Label 1450 2250 2    50   ~ 0
VCC
Text Label 1500 2250 0    30   ~ 0
5V
Connection ~ 1900 3200
Text Label 1900 3400 3    50   ~ 0
VPP
Text Label 1900 3400 2    30   ~ 0
3V3
Wire Wire Line
	1900 3200 1900 3400
Text Label 1500 1900 0    30   ~ 0
3V3
Wire Wire Line
	1800 6050 1650 6050
Wire Wire Line
	1800 5950 1650 5950
Wire Wire Line
	1800 5850 1650 5850
Wire Wire Line
	1800 5750 1650 5750
Wire Wire Line
	1800 5650 1650 5650
Wire Wire Line
	1800 5550 1650 5550
Wire Wire Line
	1800 5450 1650 5450
Wire Wire Line
	1800 5350 1650 5350
Wire Wire Line
	1800 5250 1650 5250
Wire Wire Line
	1800 5150 1650 5150
Wire Wire Line
	1800 5050 1650 5050
Wire Wire Line
	1800 4950 1650 4950
$Comp
L power:GND #PWR0103
U 1 1 5F3EF9EF
P 2400 6350
F 0 "#PWR0103" H 2400 6100 50  0001 C CNN
F 1 "GND" H 2405 6177 50  0000 C CNN
F 2 "" H 2400 6350 50  0001 C CNN
F 3 "" H 2400 6350 50  0001 C CNN
	1    2400 6350
	1    0    0    -1  
$EndComp
$Comp
L power:GND #PWR0102
U 1 1 5F3EF029
P 2300 6350
F 0 "#PWR0102" H 2300 6100 50  0001 C CNN
F 1 "GND" H 2305 6177 50  0000 C CNN
F 2 "" H 2300 6350 50  0001 C CNN
F 3 "" H 2300 6350 50  0001 C CNN
	1    2300 6350
	1    0    0    -1  
$EndComp
$Comp
L PCB-TEMP2-rescue:Arduino_Nano_v3.x-MCU_Module A1
U 1 1 5F12B623
P 2300 5350
F 0 "A1" H 2300 4261 50  0000 C CNN
F 1 "Arduino_Nano_v3.x" H 2300 4170 50  0000 C CNN
F 2 "Module:Arduino_Nano" H 2450 4400 50  0001 L CNN
F 3 "http://www.mouser.com/pdfdocs/Gravitech_Arduino_Nano3_0.pdf" H 2300 4350 50  0001 C CNN
	1    2300 5350
	1    0    0    -1  
$EndComp
Wire Wire Line
	6700 2550 7050 2550
Wire Wire Line
	7050 2800 7050 2550
Wire Wire Line
	6900 2800 7050 2800
Wire Wire Line
	7000 2950 7150 2950
Connection ~ 7000 2950
Wire Wire Line
	7000 2700 6900 2700
Wire Wire Line
	7000 2950 7000 2700
Wire Wire Line
	7350 2800 7350 2950
Wire Wire Line
	7350 2550 7350 2700
Wire Wire Line
	7550 2550 7350 2550
Wire Wire Line
	6950 1800 6950 1950
Wire Wire Line
	6950 1700 6950 1550
Wire Wire Line
	7250 1700 7250 1950
Wire Wire Line
	7350 1700 7250 1700
Wire Wire Line
	7300 1800 7300 1550
Wire Wire Line
	7350 1800 7300 1800
Connection ~ 8150 2750
Wire Wire Line
	8150 2750 8150 2950
$Comp
L 2N7002-7-F:2N7002-7-F U3
U 1 1 5FC167C1
P 5000 3450
F 0 "U3" H 6500 4500 60  0000 C CNN
F 1 "2N7002-7-F" H 6500 4350 60  0000 C CNN
F 2 "2n:2N7002-7-F" H 5900 3690 60  0001 C CNN
F 3 "" H 5000 3450 60  0000 C CNN
	1    5000 3450
	1    0    0    -1  
$EndComp
Connection ~ 6100 2750
Wire Wire Line
	6100 2750 6100 2950
Wire Wire Line
	6100 1750 6100 2750
Wire Wire Line
	7350 3250 8150 3250
Connection ~ 8150 1750
$Comp
L BSS84-7:BSS84-7-F U9
U 1 1 5FAC92F3
P 9200 1100
F 0 "U9" H 10700 2100 60  0000 C CNN
F 1 "BSS84-7-F" H 10650 1950 60  0000 C CNN
F 2 "bss:BSS84-7-F" H 10100 1340 60  0001 C CNN
F 3 "" H 9200 1100 60  0000 C CNN
	1    9200 1100
	-1   0    0    1   
$EndComp
Wire Wire Line
	7150 1550 7300 1550
Wire Wire Line
	6900 3250 6100 3250
Wire Wire Line
	6900 2950 6900 3250
Wire Wire Line
	6900 2950 7000 2950
Connection ~ 6100 1750
Wire Wire Line
	6100 1450 6100 1750
Wire Wire Line
	6100 1750 6150 1750
Wire Wire Line
	7250 1950 7550 1950
Wire Wire Line
	6950 1950 6700 1950
$Comp
L 2N7002-7-F:2N7002-7-F U10
U 1 1 5FAF91F8
P 9250 2050
F 0 "U10" H 10750 3100 60  0000 C CNN
F 1 "2N7002-7-F" H 10750 2950 60  0000 C CNN
F 2 "2n:2N7002-7-F" H 10150 2290 60  0001 C CNN
F 3 "" H 9250 2050 60  0000 C CNN
	1    9250 2050
	-1   0    0    1   
$EndComp
$Comp
L BSS84-7:BSS84-7-F U4
U 1 1 5FABFC70
P 5100 2400
F 0 "U4" H 6600 3400 60  0000 C CNN
F 1 "BSS84-7-F" H 6550 3250 60  0000 C CNN
F 2 "bss:BSS84-7-F" H 6000 2640 60  0001 C CNN
F 3 "" H 5100 2400 60  0000 C CNN
	1    5100 2400
	1    0    0    -1  
$EndComp
Wire Wire Line
	8150 1750 8150 2750
$Comp
L LED:CQY99 IX2_ON1
U 1 1 5F92E5D6
P 7550 2050
F 0 "IX2_ON1" V 7546 1973 50  0000 R CNN
F 1 "CQY99" V 7455 1973 50  0000 R CNN
F 2 "LED_THT:LED_D5.0mm_IRGrey" H 7550 2225 50  0001 C CNN
F 3 "https://www.prtice.info/IMG/pdf/CQY99.pdf" H 7500 2050 50  0001 C CNN
	1    7550 2050
	0    -1   -1   0   
$EndComp
$Comp
L LED:CQY99 IX1_ON1
U 1 1 5F845F38
P 6700 2050
F 0 "IX1_ON1" V 6696 1973 50  0000 R CNN
F 1 "CQY99" V 6605 1973 50  0000 R CNN
F 2 "LED_THT:LED_D5.0mm_IRGrey" H 6700 2225 50  0001 C CNN
F 3 "https://www.prtice.info/IMG/pdf/CQY99.pdf" H 6650 2050 50  0001 C CNN
	1    6700 2050
	0    -1   -1   0   
$EndComp
$Comp
L Device:R R2
U 1 1 5F1E00CD
P 8150 3100
F 0 "R2" H 8220 3146 50  0000 L CNN
F 1 "1k" H 8220 3055 50  0000 L CNN
F 2 "Resistor_THT:R_Axial_DIN0207_L6.3mm_D2.5mm_P7.62mm_Horizontal" V 8080 3100 50  0001 C CNN
F 3 "~" H 8150 3100 50  0001 C CNN
	1    8150 3100
	1    0    0    -1  
$EndComp
$Comp
L Device:R R1
U 1 1 5F1E00D3
P 6100 3100
F 0 "R1" H 6170 3146 50  0000 L CNN
F 1 "1k" H 6170 3055 50  0000 L CNN
F 2 "Resistor_THT:R_Axial_DIN0207_L6.3mm_D2.5mm_P7.62mm_Horizontal" V 6030 3100 50  0001 C CNN
F 3 "~" H 6100 3100 50  0001 C CNN
	1    6100 3100
	1    0    0    -1  
$EndComp
Wire Wire Line
	7550 2400 7550 2550
Wire Wire Line
	6700 2400 6700 2550
Wire Wire Line
	7150 2950 7150 3050
Connection ~ 7150 2950
Wire Wire Line
	7150 2950 7350 2950
$Comp
L power:GND #PWR0107
U 1 1 5F1E00F5
P 7150 3050
F 0 "#PWR0107" H 7150 2800 50  0001 C CNN
F 1 "GND" H 7155 2877 50  0000 C CNN
F 2 "" H 7150 3050 50  0001 C CNN
F 3 "" H 7150 3050 50  0001 C CNN
	1    7150 3050
	1    0    0    -1  
$EndComp
Wire Wire Line
	7350 2950 7350 3250
Connection ~ 7350 2950
Connection ~ 7550 2400
Connection ~ 6700 2400
Wire Wire Line
	8150 1450 8150 1750
Wire Wire Line
	7150 1300 7150 1550
Wire Wire Line
	7150 1550 6950 1550
Connection ~ 7150 1550
Wire Wire Line
	6900 2400 6700 2400
Wire Wire Line
	6700 2250 6700 2400
Wire Wire Line
	7550 2400 7400 2400
Wire Wire Line
	7550 2250 7550 2400
$Comp
L pspice:INDUCTOR L1
U 1 1 5F1E00AF
P 7150 2400
F 0 "L1" H 7150 2615 50  0000 C CNN
F 1 "INDUCTOR" H 7150 2524 50  0000 C CNN
F 2 "Resistor_THT:R_Axial_DIN0207_L6.3mm_D2.5mm_P7.62mm_Horizontal" H 7150 2400 50  0001 C CNN
F 3 "~" H 7150 2400 50  0001 C CNN
	1    7150 2400
	1    0    0    -1  
$EndComp
Wire Wire Line
	9300 2550 9650 2550
Wire Wire Line
	9650 2800 9650 2550
Wire Wire Line
	9500 2800 9650 2800
Wire Wire Line
	9600 2950 9750 2950
Connection ~ 9600 2950
Wire Wire Line
	9600 2700 9500 2700
Wire Wire Line
	9600 2950 9600 2700
Wire Wire Line
	9950 2800 9950 2950
Wire Wire Line
	9950 2550 9950 2700
Wire Wire Line
	10150 2550 9950 2550
Wire Wire Line
	9850 1700 9850 1950
Wire Wire Line
	9950 1700 9850 1700
Wire Wire Line
	9900 1800 9900 1550
Wire Wire Line
	9950 1800 9900 1800
Connection ~ 10750 2750
Wire Wire Line
	10750 2750 10750 2950
$Comp
L 2N7002-7-F:2N7002-7-F U5
U 1 1 5FE9310F
P 7600 3450
F 0 "U5" H 9100 4500 60  0000 C CNN
F 1 "2N7002-7-F" H 9100 4350 60  0000 C CNN
F 2 "2n:2N7002-7-F" H 8500 3690 60  0001 C CNN
F 3 "" H 7600 3450 60  0000 C CNN
	1    7600 3450
	1    0    0    -1  
$EndComp
Connection ~ 8700 2750
Wire Wire Line
	8700 2750 8700 2950
Wire Wire Line
	8700 1750 8700 2750
Wire Wire Line
	9950 3250 10750 3250
Connection ~ 10750 1750
$Comp
L BSS84-7:BSS84-7-F U11
U 1 1 5FE9311A
P 11800 1100
F 0 "U11" H 13300 2100 60  0000 C CNN
F 1 "BSS84-7-F" H 13250 1950 60  0000 C CNN
F 2 "bss:BSS84-7-F" H 12700 1340 60  0001 C CNN
F 3 "" H 11800 1100 60  0000 C CNN
	1    11800 1100
	-1   0    0    1   
$EndComp
Wire Wire Line
	9750 1550 9900 1550
Wire Wire Line
	9500 3250 8700 3250
Wire Wire Line
	9500 2950 9500 3250
Wire Wire Line
	9500 2950 9600 2950
Connection ~ 8700 1750
Wire Wire Line
	8700 1450 8700 1750
Wire Wire Line
	8700 1750 8750 1750
Wire Wire Line
	9850 1950 10150 1950
$Comp
L 2N7002-7-F:2N7002-7-F U13
U 1 1 5FE93129
P 11850 2050
F 0 "U13" H 13350 3100 60  0000 C CNN
F 1 "2N7002-7-F" H 13350 2950 60  0000 C CNN
F 2 "2n:2N7002-7-F" H 12750 2290 60  0001 C CNN
F 3 "" H 11850 2050 60  0000 C CNN
	1    11850 2050
	-1   0    0    1   
$EndComp
Wire Wire Line
	10750 1750 10750 2750
$Comp
L LED:CQY99 IX2_ON2
U 1 1 5FE93136
P 10150 2050
F 0 "IX2_ON2" V 10146 1973 50  0000 R CNN
F 1 "CQY99" V 10055 1973 50  0000 R CNN
F 2 "LED_THT:LED_D5.0mm_IRGrey" H 10150 2225 50  0001 C CNN
F 3 "https://www.prtice.info/IMG/pdf/CQY99.pdf" H 10100 2050 50  0001 C CNN
	1    10150 2050
	0    -1   -1   0   
$EndComp
$Comp
L Device:R R5
U 1 1 5FE93142
P 10750 3100
F 0 "R5" H 10820 3146 50  0000 L CNN
F 1 "1k" H 10820 3055 50  0000 L CNN
F 2 "Resistor_THT:R_Axial_DIN0207_L6.3mm_D2.5mm_P7.62mm_Horizontal" V 10680 3100 50  0001 C CNN
F 3 "~" H 10750 3100 50  0001 C CNN
	1    10750 3100
	1    0    0    -1  
$EndComp
$Comp
L Device:R R3
U 1 1 5FE93148
P 8700 3100
F 0 "R3" H 8770 3146 50  0000 L CNN
F 1 "1k" H 8770 3055 50  0000 L CNN
F 2 "Resistor_THT:R_Axial_DIN0207_L6.3mm_D2.5mm_P7.62mm_Horizontal" V 8630 3100 50  0001 C CNN
F 3 "~" H 8700 3100 50  0001 C CNN
	1    8700 3100
	1    0    0    -1  
$EndComp
Wire Wire Line
	10150 2400 10150 2550
Wire Wire Line
	9300 2400 9300 2550
Wire Wire Line
	9750 2950 9750 3050
Connection ~ 9750 2950
Wire Wire Line
	9750 2950 9950 2950
$Comp
L power:GND #PWR0105
U 1 1 5FE93153
P 9750 3050
F 0 "#PWR0105" H 9750 2800 50  0001 C CNN
F 1 "GND" H 9755 2877 50  0000 C CNN
F 2 "" H 9750 3050 50  0001 C CNN
F 3 "" H 9750 3050 50  0001 C CNN
	1    9750 3050
	1    0    0    -1  
$EndComp
Wire Wire Line
	9950 2950 9950 3250
Connection ~ 9950 2950
Connection ~ 10150 2400
Connection ~ 9300 2400
Wire Wire Line
	10750 1450 10750 1750
Wire Wire Line
	9750 1300 9750 1550
Wire Wire Line
	9500 2400 9300 2400
Wire Wire Line
	9300 2250 9300 2400
Wire Wire Line
	10150 2400 10000 2400
Wire Wire Line
	10150 2250 10150 2400
$Comp
L pspice:INDUCTOR L2
U 1 1 5FE93165
P 9750 2400
F 0 "L2" H 9750 2615 50  0000 C CNN
F 1 "INDUCTOR" H 9750 2524 50  0000 C CNN
F 2 "Resistor_THT:R_Axial_DIN0207_L6.3mm_D2.5mm_P7.62mm_Horizontal" H 9750 2400 50  0001 C CNN
F 3 "~" H 9750 2400 50  0001 C CNN
	1    9750 2400
	1    0    0    -1  
$EndComp
Text Label 9750 4100 1    50   ~ 0
VCC
Wire Wire Line
	9300 5350 9650 5350
Wire Wire Line
	9650 5600 9650 5350
Wire Wire Line
	9500 5600 9650 5600
Wire Wire Line
	9600 5750 9750 5750
Connection ~ 9600 5750
Wire Wire Line
	9600 5500 9500 5500
Wire Wire Line
	9600 5750 9600 5500
Wire Wire Line
	9950 5600 9950 5750
Wire Wire Line
	9950 5350 9950 5500
Wire Wire Line
	10150 5350 9950 5350
Wire Wire Line
	9550 4600 9550 4750
Wire Wire Line
	9550 4500 9550 4350
Wire Wire Line
	9850 4500 9850 4750
Wire Wire Line
	9950 4500 9850 4500
Wire Wire Line
	9900 4600 9900 4350
Wire Wire Line
	9950 4600 9900 4600
Connection ~ 10750 5550
Wire Wire Line
	10750 5550 10750 5750
$Comp
L 2N7002-7-F:2N7002-7-F U6
U 1 1 5FF0A197
P 7600 6250
F 0 "U6" H 9100 7300 60  0000 C CNN
F 1 "2N7002-7-F" H 9100 7150 60  0000 C CNN
F 2 "2n:2N7002-7-F" H 8500 6490 60  0001 C CNN
F 3 "" H 7600 6250 60  0000 C CNN
	1    7600 6250
	1    0    0    -1  
$EndComp
Connection ~ 8700 5550
Wire Wire Line
	8700 5550 8700 5750
Wire Wire Line
	8700 4550 8700 5550
Wire Wire Line
	9950 6050 10750 6050
Connection ~ 10750 4550
$Comp
L BSS84-7:BSS84-7-F U12
U 1 1 5FF0A1A2
P 11800 3900
F 0 "U12" H 13300 4900 60  0000 C CNN
F 1 "BSS84-7-F" H 13250 4750 60  0000 C CNN
F 2 "bss:BSS84-7-F" H 12700 4140 60  0001 C CNN
F 3 "" H 11800 3900 60  0000 C CNN
	1    11800 3900
	-1   0    0    1   
$EndComp
Wire Wire Line
	9750 4350 9900 4350
Wire Wire Line
	9500 6050 8700 6050
Wire Wire Line
	9500 5750 9500 6050
Wire Wire Line
	9500 5750 9600 5750
Connection ~ 8700 4550
Wire Wire Line
	8700 4250 8700 4550
Wire Wire Line
	8700 4550 8750 4550
Wire Wire Line
	9850 4750 10150 4750
Wire Wire Line
	9550 4750 9300 4750
$Comp
L 2N7002-7-F:2N7002-7-F U14
U 1 1 5FF0A1B1
P 11850 4850
F 0 "U14" H 13350 5900 60  0000 C CNN
F 1 "2N7002-7-F" H 13350 5750 60  0000 C CNN
F 2 "2n:2N7002-7-F" H 12750 5090 60  0001 C CNN
F 3 "" H 11850 4850 60  0000 C CNN
	1    11850 4850
	-1   0    0    1   
$EndComp
$Comp
L BSS84-7:BSS84-7-F U8
U 1 1 5FF0A1B7
P 7700 5200
F 0 "U8" H 9200 6200 60  0000 C CNN
F 1 "BSS84-7-F" H 9150 6050 60  0000 C CNN
F 2 "bss:BSS84-7-F" H 8600 5440 60  0001 C CNN
F 3 "" H 7700 5200 60  0000 C CNN
	1    7700 5200
	1    0    0    -1  
$EndComp
Wire Wire Line
	10750 4550 10750 5550
$Comp
L LED:CQY99 IX2_ON3
U 1 1 5FF0A1BE
P 10150 4850
F 0 "IX2_ON3" V 10146 4773 50  0000 R CNN
F 1 "CQY99" V 10055 4773 50  0000 R CNN
F 2 "LED_THT:LED_D5.0mm_IRGrey" H 10150 5025 50  0001 C CNN
F 3 "https://www.prtice.info/IMG/pdf/CQY99.pdf" H 10100 4850 50  0001 C CNN
	1    10150 4850
	0    -1   -1   0   
$EndComp
$Comp
L LED:CQY99 IX1_ON3
U 1 1 5FF0A1C4
P 9300 4850
F 0 "IX1_ON3" V 9296 4773 50  0000 R CNN
F 1 "CQY99" V 9205 4773 50  0000 R CNN
F 2 "LED_THT:LED_D5.0mm_IRGrey" H 9300 5025 50  0001 C CNN
F 3 "https://www.prtice.info/IMG/pdf/CQY99.pdf" H 9250 4850 50  0001 C CNN
	1    9300 4850
	0    -1   -1   0   
$EndComp
$Comp
L Device:R R6
U 1 1 5FF0A1CA
P 10750 5900
F 0 "R6" H 10820 5946 50  0000 L CNN
F 1 "1k" H 10820 5855 50  0000 L CNN
F 2 "Resistor_THT:R_Axial_DIN0207_L6.3mm_D2.5mm_P7.62mm_Horizontal" V 10680 5900 50  0001 C CNN
F 3 "~" H 10750 5900 50  0001 C CNN
	1    10750 5900
	1    0    0    -1  
$EndComp
$Comp
L Device:R R4
U 1 1 5FF0A1D0
P 8700 5900
F 0 "R4" H 8770 5946 50  0000 L CNN
F 1 "1k" H 8770 5855 50  0000 L CNN
F 2 "Resistor_THT:R_Axial_DIN0207_L6.3mm_D2.5mm_P7.62mm_Horizontal" V 8630 5900 50  0001 C CNN
F 3 "~" H 8700 5900 50  0001 C CNN
	1    8700 5900
	1    0    0    -1  
$EndComp
Wire Wire Line
	10150 5200 10150 5350
Wire Wire Line
	9300 5200 9300 5350
Wire Wire Line
	9750 5750 9750 5850
Connection ~ 9750 5750
Wire Wire Line
	9750 5750 9950 5750
$Comp
L power:GND #PWR0106
U 1 1 5FF0A1DB
P 9750 5850
F 0 "#PWR0106" H 9750 5600 50  0001 C CNN
F 1 "GND" H 9755 5677 50  0000 C CNN
F 2 "" H 9750 5850 50  0001 C CNN
F 3 "" H 9750 5850 50  0001 C CNN
	1    9750 5850
	1    0    0    -1  
$EndComp
Wire Wire Line
	9950 5750 9950 6050
Connection ~ 9950 5750
Connection ~ 10150 5200
Connection ~ 9300 5200
Wire Wire Line
	10750 4250 10750 4550
Wire Wire Line
	9750 4100 9750 4350
Wire Wire Line
	9750 4350 9550 4350
Connection ~ 9750 4350
Wire Wire Line
	9500 5200 9300 5200
Wire Wire Line
	9300 5050 9300 5200
Wire Wire Line
	10150 5200 10000 5200
Wire Wire Line
	10150 5050 10150 5200
$Comp
L pspice:INDUCTOR L3
U 1 1 5FF0A1ED
P 9750 5200
F 0 "L3" H 9750 5415 50  0000 C CNN
F 1 "INDUCTOR" H 9750 5324 50  0000 C CNN
F 2 "Resistor_THT:R_Axial_DIN0207_L6.3mm_D2.5mm_P7.62mm_Horizontal" H 9750 5200 50  0001 C CNN
F 3 "~" H 9750 5200 50  0001 C CNN
	1    9750 5200
	1    0    0    -1  
$EndComp
Connection ~ 9750 1550
Wire Wire Line
	9750 1550 9550 1550
$Comp
L LED:CQY99 IX1_ON2
U 1 1 5FE9313C
P 9300 2050
F 0 "IX1_ON2" V 9296 1973 50  0000 R CNN
F 1 "CQY99" V 9205 1973 50  0000 R CNN
F 2 "LED_THT:LED_D5.0mm_IRGrey" H 9300 2225 50  0001 C CNN
F 3 "https://www.prtice.info/IMG/pdf/CQY99.pdf" H 9250 2050 50  0001 C CNN
	1    9300 2050
	0    -1   -1   0   
$EndComp
$Comp
L BSS84-7:BSS84-7-F U7
U 1 1 5FE9312F
P 7700 2400
F 0 "U7" H 9200 3400 60  0000 C CNN
F 1 "BSS84-7-F" H 9150 3250 60  0000 C CNN
F 2 "bss:BSS84-7-F" H 8600 2640 60  0001 C CNN
F 3 "" H 7700 2400 60  0000 C CNN
	1    7700 2400
	1    0    0    -1  
$EndComp
Wire Wire Line
	9550 1950 9300 1950
Wire Wire Line
	9550 1700 9550 1550
Wire Wire Line
	9550 1800 9550 1950
$EndSCHEMATC
